%YAML 1.1
%TAG !u! tag:unity3d.com,2011:
--- !u!21 &2100000
Material:
  serializedVersion: 3
  m_ObjectHideFlags: 0
  m_PrefabParentObject: {fileID: 0}
  m_PrefabInternal: {fileID: 0}
  m_Name: Bush_04_A
  m_Shader: {fileID: 10601, guid: 0000000000000000f000000000000000, type: 0}
  m_ShaderKeywords: []
  m_CustomRenderQueue: -1
  m_SavedProperties:
    serializedVersion: 2
    m_TexEnvs:
      data:
        first:
          name: _MainTex
        second:
          m_Texture: {fileID: 2800000, guid: aafaea9e4a8412d4f9d16d48a92bb311, type: 3}
          m_Scale: {x: 1, y: 1}
          m_Offset: {x: 0, y: 0}
      data:
        first:
          name: _BumpMap
        second:
          m_Texture: {fileID: 2800000, guid: ce9a7a662bcc63644b1112e2866dd31d, type: 3}
          m_Scale: {x: 1, y: 1}
          m_Offset: {x: 0, y: 0}
      data:
        first:
          name: _TranslucencyMap
        second:
          m_Texture: {fileID: 2800000, guid: 0e59f046f3997d74596e972d76c24a45, type: 3}
          m_Scale: {x: 1, y: 1}
          m_Offset: {x: 0, y: 0}
      data:
        first:
          name: _GlossMap
        second:
          m_Texture: {fileID: 2800000, guid: d916a617a2b0d824eb7bdde8d568d58c, type: 3}
          m_Scale: {x: 1, y: 1}
          m_Offset: {x: 0, y: 0}
      data:
        first:
          name: _ShadowOffset
        second:
          m_Texture: {fileID: 2800000, guid: aafaea9e4a8412d4f9d16d48a92bb311, type: 3}
          m_Scale: {x: 1, y: 1}
          m_Offset: {x: 0, y: 0}
    m_Floats:
      data:
        first:
          name: _Cutoff
        second: .300000012
      data:
        first:
          name: _Shininess
        second: .249471158
      data:
        first:
          name: _SquashAmount
        second: 1
    m_Colors:
      data:
        first:
          name: _Color
        second: {r: .970149279, g: .909394681, b: .86155045, a: 1}
      data:
        first:
          name: _Scale
        second: {r: 1, g: 1, b: 1, a: 1}
--- !u!1002 &2100001
EditorExtensionImpl:
  serializedVersion: 6
