%YAML 1.1
%TAG !u! tag:unity3d.com,2011:
--- !u!74 &7400000
AnimationClip:
  m_ObjectHideFlags: 0
  m_PrefabParentObject: {fileID: 0}
  m_PrefabInternal: {fileID: 0}
  m_Name: Village_02
  serializedVersion: 4
  m_AnimationType: 1
  m_Compressed: 0
  m_UseHighQualityCurve: 1
  m_RotationCurves:
  - curve:
      serializedVersion: 2
      m_Curve:
      - time: 0
        value: {x: -0, y: .986989677, z: -0, w: -.160783619}
        inSlope: {x: -.00276209321, y: -.0124669066, z: -.0168190133, w: -.076206021}
        outSlope: {x: -.00276209321, y: -.0124669066, z: -.0168190133, w: -.076206021}
        tangentMode: -559038737
      - time: .833333194
        value: {x: -.00366109284, y: .974223554, z: -.015852306, w: -.224997103}
        inSlope: {x: -.00614920072, y: -.0182962585, z: -.0208568219, w: -.0776504725}
        outSlope: {x: -.00614920072, y: -.0182962585, z: -.0208568219, w: -.0776504725}
        tangentMode: -559038737
      - time: 1.66666579
        value: {x: -.0103164818, y: .95644623, z: -.0340562053, w: -.289731622}
        inSlope: {x: -.00980940647, y: -.0243598446, z: -.0224132296, w: -.0774327666}
        outSlope: {x: -.00980940647, y: -.0243598446, z: -.0224132296, w: -.0774327666}
        tangentMode: -559038737
      - time: 2.49999833
        value: {x: -.019892469, y: .933709145, z: -.0525277741, w: -.353599221}
        inSlope: {x: -.0130461091, y: -.0301158708, z: -.0215260889, w: -.075590089}
        outSlope: {x: -.0130461091, y: -.0301158708, z: -.0215260889, w: -.075590089}
        tangentMode: -559038737
      - time: 3.33333087
        value: {x: -.0317588821, y: .906476259, z: -.0693175569, w: -.415315747}
        inSlope: {x: -.0152007639, y: -.0350725986, z: -.0184263457, w: -.0723124221}
        outSlope: {x: -.0152007639, y: -.0350725986, z: -.0184263457, w: -.0723124221}
        tangentMode: -559038737
      - time: 4.14999866
        value: {x: -.0444993488, y: .876244307, z: -.0824949369, w: -.472662985}
        inSlope: {x: -.0156912729, y: -.0387413092, z: -.0135785025, w: -.06797342}
        outSlope: {x: -.0156912729, y: -.0387413092, z: -.0135785025, w: -.06797342}
        tangentMode: -559038737
      - time: 4.96667624
        value: {x: -.0568268821, y: .843601584, z: -.091118075, w: -.526122272}
        inSlope: {x: -.014124101, y: -.0409353264, z: -.00734244892, w: -.0628379583}
        outSlope: {x: -.014124101, y: -.0409353264, z: -.00734244892, w: -.0628379583}
        tangentMode: -559038737
      - time: 5.78335381
        value: {x: -.0669217184, y: .809827685, z: -.0942241699, w: -.57517153}
        inSlope: {x: -.0101822, y: -.0414950065, z: -.000134779199, w: -.0572179072}
        outSlope: {x: -.0101822, y: -.0414950065, z: -.000134779199, w: -.0572179072}
        tangentMode: -559038737
      - time: 6.60003138
        value: {x: -.0727616921, y: .776275039, z: -.0911741257, w: -.619507849}
        inSlope: {x: -.00368575286, y: -.0404024683, z: .00767995603, w: -.0513242781}
        outSlope: {x: -.00368575286, y: -.0404024683, z: .00767995603, w: -.0513242781}
        tangentMode: -559038737
      - time: 7.41670895
        value: {x: -.0713171959, y: .745173216, z: -.0807518438, w: -.658110857}
        inSlope: {x: .00803221483, y: -.0350399092, z: .0181399845, w: -.0427717194}
        outSlope: {x: .00803221483, y: -.0350399092, z: .0181399845, w: -.0427717194}
        tangentMode: -559038737
      - time: 8.23337936
        value: {x: -.0602042079, y: .718489408, z: -.062682122, w: -.690086484}
        inSlope: {x: .0186608601, y: -.0307975933, z: .0253854841, w: -.0359993726}
        outSlope: {x: .0186608601, y: -.0307975933, z: .0253854841, w: -.0359993726}
        tangentMode: -559038737
      - time: 9.06669998
        value: {x: -.0413396806, y: .693531811, z: -.0399236642, w: -.718130052}
        inSlope: {x: .0259803832, y: -.0296567436, z: .0285613798, w: -.0317238644}
        outSlope: {x: .0259803832, y: -.0296567436, z: .0285613798, w: -.0317238644}
        tangentMode: -559038737
      - time: 9.9000206
        value: {x: -.0179988146, y: .668139815, z: -.0161713865, w: -.743642151}
        inSlope: {x: .0293637626, y: -.0318329409, z: .0278035328, w: -.0299178157}
        outSlope: {x: .0293637626, y: -.0318329409, z: .0278035328, w: -.0299178157}
        tangentMode: -559038737
      - time: 10.7333412
        value: {x: .00645152992, y: .63957715, z: .00536796218, w: -.768681109}
        inSlope: {x: .0286113098, y: -.0372546613, z: .0232795812, w: -.0305937417}
        outSlope: {x: .0286113098, y: -.0372546613, z: .0232795812, w: -.0305937417}
        tangentMode: -559038737
      - time: 11.5666618
        value: {x: .0284655951, y: .605145872, z: .0216592569, w: -.795310616}
        inSlope: {x: .0234535933, y: -.0459415764, z: .0152835716, w: -.0337015763}
        outSlope: {x: .0234535933, y: -.0459415764, z: .0152835716, w: -.0337015763}
        tangentMode: -559038737
      - time: 12.3999825
        value: {x: .0441651307, y: .562005043, z: .0300712846, w: -.825406313}
        inSlope: {x: .0133692278, y: -.0582763478, z: .00457211863, w: -.0387960635}
        outSlope: {x: .0133692278, y: -.0582763478, z: .00457211863, w: -.0387960635}
        tangentMode: -559038737
      - time: 13.2333031
        value: {x: .0533462949, y: .506058037, z: .0314336233, w: -.860274017}
        inSlope: {x: .00872513559, y: -.0755714923, z: -.00104093645, w: -.0439513475}
        outSlope: {x: .00872513559, y: -.0755714923, z: -.00104093645, w: -.0439513475}
        tangentMode: -559038737
      - time: 14.0666237
        value: {x: .0587277301, y: .436895937, z: .0287780315, w: -.897131503}
        inSlope: {x: .00420822669, y: -.08984375, z: -.0050460943, w: -.0436384194}
        outSlope: {x: .00420822669, y: -.08984375, z: -.0050460943, w: -.0436384194}
        tangentMode: -559038737
      - time: 14.8999443
        value: {x: .0604209602, y: .357409894, z: .0235136412, w: -.931694448}
        inSlope: {x: -8.18086264e-05, y: -.100188293, z: -.007295385, w: -.0386243984}
        outSlope: {x: -8.18086264e-05, y: -.100188293, z: -.007295385, w: -.0386243984}
        tangentMode: -559038737
      - time: 15.7332649
        value: {x: .0587485544, y: .271271199, z: .0170828979, w: -.960556448}
        inSlope: {x: -.00380488345, y: -.105665445, z: -.00788330007, w: -.0302146524}
        outSlope: {x: -.00380488345, y: -.105665445, z: -.00788330007, w: -.0302146524}
        tangentMode: -559038737
      - time: 16.5665855
        value: {x: .0543441251, y: .182861626, z: .0107433349, w: -.9815768}
        inSlope: {x: -.00657888874, y: -.105545193, z: -.00715082232, w: -.020104358}
        outSlope: {x: -.00657888874, y: -.105545193, z: -.00715082232, w: -.020104358}
        tangentMode: -559038737
      - time: 17.3999062
        value: {x: .0481322668, y: .0970218033, z: .00538944406, w: -.994103134}
        inSlope: {x: -.00810464192, y: -.0994730294, z: -.00561235659, w: -.010129964}
        outSlope: {x: -.00810464192, y: -.0994730294, z: -.00561235659, w: -.010129964}
        tangentMode: -559038737
      - time: 18.2332268
        value: {x: .0412245765, y: .0187167842, z: .0014529404, w: -.998973489}
        inSlope: {x: -.00823841896, y: -.0874996334, z: -.00384316477, w: -.00198486494}
        outSlope: {x: -.00823841896, y: -.0874996334, z: -.00384316477, w: -.00198486494}
        tangentMode: -559038737
      - time: 19.0665474
        value: {x: .0347878449, y: -.0472653471, z: -.00109395944, w: -.998275757}
        inSlope: {x: -.00698524946, y: -.0699710697, z: -.00234924234, w: .00306849391}
        outSlope: {x: -.00698524946, y: -.0699710697, z: -.00234924234, w: .00306849391}
        tangentMode: -559038737
      - time: 19.899868
        value: {x: .0299422424, y: -.0964810401, z: -.00262938091, w: -.994880795}
        inSlope: {x: -.00443700003, y: -.0473276302, z: -.00144690624, w: .00446147565}
        outSlope: {x: -.00443700003, y: -.0473276302, z: -.00144690624, w: .00446147565}
        tangentMode: -559038737
      - time: 20.7331886
        value: {x: .0274311807, y: -.125643566, z: -.00366991549, w: -.991689384}
        inSlope: {x: -.00268247351, y: -.0255529005, z: -.00108316098, w: .00316684321}
        outSlope: {x: -.00268247351, y: -.0255529005, z: -.00108316098, w: .00316684321}
        tangentMode: -559038737
      - time: 21.5665092
        value: {x: .0246402957, y: -.141668186, z: -.00443487754, w: -.989597559}
        inSlope: {x: -.00398442615, y: -.0130817797, z: -.000762583222, w: .00177564949}
        outSlope: {x: -.00398442615, y: -.0130817797, z: -.000762583222, w: .00177564949}
        tangentMode: -559038737
      - time: 22.3998299
        value: {x: .020841334, y: -.147730544, z: -.00496751396, w: -.988795578}
        inSlope: {x: -.00510331616, y: -.00163438427, z: -.000537078595, w: .000135900671}
        outSlope: {x: -.00510331616, y: -.00163438427, z: -.000537078595, w: .000135900671}
        tangentMode: -559038737
      - time: 23.2331505
        value: {x: .0161837023, y: -.144662544, z: -.00537199108, w: -.989334166}
        inSlope: {x: -.00604590308, y: .00883801281, z: -.000462143274, w: -.00138940546}
        outSlope: {x: -.00604590308, y: .00883801281, z: -.000462143274, w: -.00138940546}
        tangentMode: -559038737
      - time: 24.0664711
        value: {x: .0108138006, y: -.133259758, z: -.00578832859, w: -.991005242}
        inSlope: {x: -.00681227213, y: .0183738582, z: -.000568790711, w: -.0025427728}
        outSlope: {x: -.00681227213, y: .0183738582, z: -.000568790711, w: -.0025427728}
        tangentMode: -559038737
      - time: 24.8997917
        value: {x: .00488090189, y: -.114295974, z: -.00637309207, w: -.993414283}
        inSlope: {x: -.00739543792, y: .026985893, z: -.000866199087, w: -.00313465623}
        outSlope: {x: -.00739543792, y: .026985893, z: -.000866199087, w: -.00313465623}
        tangentMode: -559038737
      - time: 25.7331123
        value: {x: -.00145743228, y: -.0885425732, z: -.00728223147, w: -.996044755}
        inSlope: {x: -.00778291468, y: .0346658453, z: -.00134410057, w: -.00306134112}
        outSlope: {x: -.00778291468, y: .0346658453, z: -.00134410057, w: -.00306134112}
        tangentMode: -559038737
      - time: 26.566433
        value: {x: -.00803185254, y: -.0567876548, z: -.00865589734, w: -.998316467}
        inSlope: {x: -.00795946456, y: .0413833186, z: -.00197522575, w: -.00227097166}
        outSlope: {x: -.00795946456, y: .0413833186, z: -.00197522575, w: -.00227097166}
        tangentMode: -559038737
      - time: 27.3997536
        value: {x: -.0146605168, y: -.0198513642, z: -.0106053082, w: -.999639153}
        inSlope: {x: -.0079110451, y: .0470928773, z: -.00271787355, w: -.000790369697}
        outSlope: {x: -.0079110451, y: .0470928773, z: -.00271787355, w: -.000790369697}
        tangentMode: -559038737
      - time: 28.2330742
        value: {x: -.0211515203, y: .0214051548, z: -.0132019427, w: -.999459922}
        inSlope: {x: -.00762809534, y: .0517431162, z: -.00351894414, w: .00131430244}
        outSlope: {x: -.00762809534, y: .0517431162, z: -.00351894414, w: .00131430244}
        tangentMode: -559038737
      - time: 29.0663948
        value: {x: -.0273082908, y: .0660781711, z: -.0164694563, w: -.997304738}
        inSlope: {x: -.00710941525, y: .0552845225, z: -.00431736093, w: .00393039035}
        outSlope: {x: -.00710941525, y: .0552845225, z: -.00431736093, w: .00393039035}
        tangentMode: -559038737
      - time: 29.8997154
        value: {x: -.0329373777, y: .113227367, z: -.0203788057, w: -.992813885}
        inSlope: {x: -.00636419654, y: .0576811135, z: -.00504849758, w: .00689338241}
        outSlope: {x: -.00636419654, y: .0576811135, z: -.00504849758, w: .00689338241}
        tangentMode: -559038737
      - time: 30.733036
        value: {x: -.0378577262, y: .161888823, z: -.0248468705, w: -.985769451}
        inSlope: {x: -.00541289244, y: .0589133836, z: -.00564798014, w: .0100244619}
        outSlope: {x: -.00541289244, y: .0589133836, z: -.00564798014, w: .0100244619}
        tangentMode: -559038737
      - time: 31.5663567
        value: {x: -.0419103168, y: .211093172, z: -.0297387484, w: -.976114094}
        inSlope: {x: -.00428779982, y: .0589875951, z: -.0060564084, w: .0131251439}
        outSlope: {x: -.00428779982, y: .0589875951, z: -.0060564084, w: .0131251439}
        tangentMode: -559038737
      - time: 32.3996773
        value: {x: -.0449668318, y: .25988692, z: -.0348735265, w: -.963960886}
        inSlope: {x: -.0030298247, y: .0579365976, z: -.00622349046, w: .0159862097}
        outSlope: {x: -.0030298247, y: .0579365976, z: -.00622349046, w: .0159862097}
        tangentMode: -559038737
      - time: 33.2329979
        value: {x: -.0469362848, y: .30735454, z: -.0400330909, w: -.949593425}
        inSlope: {x: -.00168679992, y: .0558167286, z: -.0061106123, w: .0184055995}
        outSlope: {x: -.00168679992, y: .0558167286, z: -.0061106123, w: .0184055995}
        tangentMode: -559038737
      - time: 34.0663185
        value: {x: -.0477684475, y: .352638245, z: -.044973243, w: -.933456898}
        inSlope: {x: -.000308458752, y: .052708894, z: -.00569408108, w: .0202009194}
        outSlope: {x: -.000308458752, y: .052708894, z: -.00569408108, w: .0202009194}
        tangentMode: -559038737
      - time: 34.8996391
        value: {x: -.0474534109, y: .394953549, z: -.049436219, w: -.916141868}
        inSlope: {x: .00105948874, y: .0487087667, z: -.00496506784, w: .021211233}
        outSlope: {x: .00105948874, y: .0487087667, z: -.00496506784, w: .021211233}
        tangentMode: -559038737
      - time: 35.7329597
        value: {x: -.0460167713, y: .433597237, z: -.0531635396, w: -.898359358}
        inSlope: {x: .00237814989, y: .0439146906, z: -.00393106043, w: .0213060062}
        outSlope: {x: .00237814989, y: .0439146906, z: -.00393106043, w: .0213060062}
        tangentMode: -559038737
      - time: 36.5662804
        value: {x: -.0435104668, y: .46794796, z: -.0559085123, w: -.880911946}
        inSlope: {x: .00362371979, y: .0384196565, z: -.00261228788, w: .0203940403}
        outSlope: {x: .00362371979, y: .0384196565, z: -.00261228788, w: .0203940403}
        tangentMode: -559038737
      - time: 37.399601
        value: {x: -.039999593, y: .497456402, z: -.0574475974, w: -.864660025}
        inSlope: {x: .0047897161, y: .0323014408, z: -.00104328338, w: .0184306335}
        outSlope: {x: .0047897161, y: .0323014408, z: -.00104328338, w: .0184306335}
        tangentMode: -559038737
      - time: 38.2329216
        value: {x: -.0355456918, y: .521626294, z: -.057590507, w: -.850485623}
        inSlope: {x: .00589156197, y: .025611911, z: .00073024258, w: .0154122077}
        outSlope: {x: .00589156197, y: .025611911, z: .00073024258, w: .0154122077}
        tangentMode: -559038737
      - time: 39.0662422
        value: {x: -.0301875174, y: .539986193, z: -.0561894476, w: -.839253485}
        inSlope: {x: .00696870871, y: .0183555298, z: .00265185116, w: .0113816801}
        outSlope: {x: .00696870871, y: .0183555298, z: .00265185116, w: .0113816801}
        tangentMode: -559038737
      - time: 39.8995628
        value: {x: -.023920292, y: .552053273, z: -.0531482659, w: -.831769347}
        inSlope: {x: .00808636844, y: .0104983263, z: .0046540387, w: .00643918803}
        outSlope: {x: .00808636844, y: .0104983263, z: .0046540387, w: .00643918803}
        tangentMode: -559038737
      - time: 40.7328835
        value: {x: -.0166747347, y: .557292044, z: -.0484332554, w: -.828735054}
        inSlope: {x: .00933355931, y: .00194731355, z: .00665387977, w: .000731360167}
        outSlope: {x: .00933355931, y: .00194731355, z: .00665387977, w: .000731360167}
        tangentMode: -559038737
      - time: 41.5662041
        value: {x: -.0082976697, y: .555070162, z: -.0420876108, w: -.830696642}
        inSlope: {x: .010822013, y: -.00743519701, z: .00854821876, w: -.005507553}
        outSlope: {x: .010822013, y: -.00743519701, z: .00854821876, w: -.005507553}
        tangentMode: -559038737
      - time: 42.3995247
        value: {x: .00146366272, y: .544616759, z: -.0342523195, w: -.837983966}
        inSlope: {x: .0126778223, y: -.0178423263, z: .0102037257, w: -.0119896568}
        outSlope: {x: .0126778223, y: -.0178423263, z: .0102037257, w: -.0119896568}
        tangentMode: -559038737
      - time: 43.2328453
        value: {x: .0129702864, y: .524989009, z: -.0251962077, w: -.850637138}
        inSlope: {x: .0150321946, y: -.0294922329, z: .0114446022, w: -.0183090381}
        outSlope: {x: .0150321946, y: -.0294922329, z: .0114446022, w: -.0183090381}
        tangentMode: -559038737
      - time: 44.0661659
        value: {x: .027315326, y: .492100447, z: -.0147978431, w: -.869983852}
        inSlope: {x: .0214277133, y: -.0583282076, z: .0149082523, w: -.0325732455}
        outSlope: {x: .0214277133, y: -.0583282076, z: .0149082523, w: -.0325732455}
        tangentMode: -559038737
      - time: 44.8994865
        value: {x: .0498839356, y: .425573438, z: -.00112148141, w: -.903547227}
        inSlope: {x: .0327780992, y: -.0993514359, z: .0166901723, w: -.0450045764}
        outSlope: {x: .0327780992, y: -.0993514359, z: .0166901723, w: -.0450045764}
        tangentMode: -559038737
      - time: 45.7328072
        value: {x: .0817056149, y: .330242872, z: .0110344337, w: -.940288246}
        inSlope: {x: .0432204343, y: -.126901716, z: .0114043672, w: -.0406772122}
        outSlope: {x: .0432204343, y: -.126901716, z: .0114043672, w: -.0406772122}
        tangentMode: -559038737
      - time: 46.5661278
        value: {x: .120889403, y: .218842611, z: .0164757837, w: -.968102336}
        inSlope: {x: .0499886461, y: -.137332991, z: .00111525715, w: -.0247804131}
        outSlope: {x: .0499886461, y: -.137332991, z: .00111525715, w: -.0247804131}
        tangentMode: -559038737
      - time: 47.3994484
        value: {x: .163416013, y: .1068011, z: .0126436111, w: -.980677783}
        inSlope: {x: .0510584153, y: -.128265649, z: -.0100436844, w: -.00558623252}
        outSlope: {x: .0510584153, y: -.128265649, z: -.0100436844, w: -.00558623252}
        tangentMode: -559038737
      - time: 48.232769
        value: {x: .204394966, y: .0103899492, z: .000873382494, w: -.97883296}
        inSlope: {x: .0464610383, y: -.100111514, z: -.017143555, w: .0086243283}
        outSlope: {x: .0464610383, y: -.100111514, z: -.017143555, w: .0086243283}
        tangentMode: -559038737
      - time: 49.0660896
        value: {x: .240123823, y: -.0560036711, z: -.0138393175, w: -.969026685}
        inSlope: {x: .0418216437, y: -.0618339069, z: -.0180199407, w: .0141944671}
        outSlope: {x: .0418216437, y: -.0618339069, z: -.0180199407, w: .0141944671}
        tangentMode: -559038737
      - time: 49.8994102
        value: {x: .277551115, y: -.0995824337, z: -.0300877076, w: -.955062032}
        inSlope: {x: .0473354533, y: -.0434271917, z: -.0207150728, w: .0189384725}
        outSlope: {x: .0473354533, y: -.0434271917, z: -.0207150728, w: .0189384725}
        tangentMode: -559038737
      - time: 50.7327309
        value: {x: .317957342, y: -.129524216, z: -.0478638336, w: -.937995613}
        inSlope: {x: .0490315296, y: -.0291265529, z: -.0216344688, w: .021744106}
        outSlope: {x: .0490315296, y: -.0291265529, z: -.0216344688, w: .021744106}
        tangentMode: -559038737
      - time: 51.5660515
        value: {x: .358289629, y: -.149270952, z: -.0656531081, w: -.919258654}
        inSlope: {x: .0471941866, y: -.0189416036, z: -.0207992829, w: .0229564831}
        outSlope: {x: .0471941866, y: -.0189416036, z: -.0207992829, w: .0229564831}
        tangentMode: -559038737
      - time: 52.3993721
        value: {x: .395679116, y: -.162188619, z: -.0821792409, w: -.900210798}
        inSlope: {x: .0419879407, y: -.012695536, z: -.0187115986, w: .0224522203}
        outSlope: {x: .0419879407, y: -.012695536, z: -.0187115986, w: .0224522203}
        tangentMode: -559038737
      - time: 53.2326927
        value: {x: .427358001, y: -.171448112, z: -.0966856852, w: -.882395923}
        inSlope: {x: .0334977284, y: -.0101125296, z: -.0160686895, w: .0199505761}
        outSlope: {x: .0334977284, y: -.0101125296, z: -.0160686895, w: .0199505761}
        tangentMode: -559038737
      - time: 54.0660133
        value: {x: .450607747, y: -.179985136, z: -.108977258, w: -.867572546}
        inSlope: {x: .021757517, y: -.0109261451, z: -.0134731643, w: .015260214}
        outSlope: {x: .021757517, y: -.0109261451, z: -.0134731643, w: .015260214}
        tangentMode: -559038737
      - time: 54.899334
        value: {x: .462702423, y: -.190566763, z: -.119221397, w: -.857541263}
        inSlope: {x: .00670741312, y: -.0150223877, z: -.011144748, w: .00850630924}
        outSlope: {x: .00670741312, y: -.0150223877, z: -.011144748, w: .00850630924}
        tangentMode: -559038737
      - time: 55.7326546
        value: {x: .460588187, y: -.205687806, z: -.127281189, w: -.854020178}
        inSlope: {x: -.0136776865, y: -.0200149491, z: -.00668595498, w: -.00155928126}
        outSlope: {x: -.0136776865, y: -.0200149491, z: -.00668595498, w: -.00155928126}
        tangentMode: -559038737
      - time: 56.5659752
        value: {x: .439667314, y: -.222406179, z: -.1290057, w: -.860572875}
        inSlope: {x: -.0352903605, y: -.0202210359, z: .00232595764, w: -.013151966}
        outSlope: {x: -.0352903605, y: -.0202210359, z: .00232595764, w: -.013151966}
        tangentMode: -559038737
      - time: 57.3992958
        value: {x: .403805882, y: -.239507034, z: -.123852804, w: -.874206841}
        inSlope: {x: -.0495465212, y: -.0208540466, z: .00971175637, w: -.0185486525}
        outSlope: {x: -.0495465212, y: -.0208540466, z: .00971175637, w: -.0185486525}
        tangentMode: -559038737
      - time: 58.2326164
        value: {x: .359193772, y: -.257168144, z: -.113482364, w: -.889924824}
        inSlope: {x: -.0562181696, y: -.0215143263, z: .0147072235, w: -.0183501653}
        outSlope: {x: -.0562181696, y: -.0215143263, z: .0147072235, w: -.0183501653}
        tangentMode: -559038737
      - time: 59.065937
        value: {x: .312353283, y: -.275307894, z: -.100248039, w: -.903654456}
        inSlope: {x: -.0548144579, y: -.02197925, z: .0164395105, w: -.0140782362}
        outSlope: {x: -.0548144579, y: -.02197925, z: .0164395105, w: -.0140782362}
        tangentMode: -559038737
      - time: 59.8992577
        value: {x: .270177364, y: -.293723524, z: -.0872178599, w: -.912756026}
        inSlope: {x: -.0449902713, y: -.0221741609, z: .0140898591, w: -.00752818119}
        outSlope: {x: -.0449902713, y: -.0221741609, z: .0140898591, w: -.00752818119}
        tangentMode: -559038737
      - time: 59.9500008
        value: {x: .267916292, y: -.2948488, z: -.0865101963, w: -.913127005}
        inSlope: {x: -.0442731157, y: -.0221759286, z: .0138503266, w: -.00715860538}
        outSlope: {x: -.0442731157, y: -.0221759286, z: .0138503266, w: -.00715860538}
        tangentMode: -559038737
      m_PreInfinity: 2
      m_PostInfinity: 2
    path: 
  m_CompressedRotationCurves: []
  m_PositionCurves:
  - curve:
      serializedVersion: 2
      m_Curve:
      - time: 0
        value: {x: 1523.96387, y: 48.0270348, z: 1407.41809}
        inSlope: {x: -.199759513, y: 1.03339958, z: 2.66585374}
        outSlope: {x: -.199759513, y: 1.03339958, z: 2.66585374}
        tangentMode: -559038737
      - time: 6.81666851
        value: {x: 1522.60217, y: 55.0713768, z: 1425.59033}
        inSlope: {x: .565826416, y: -.151076198, z: 2.82823777}
        outSlope: {x: .565826416, y: -.151076198, z: 2.82823777}
        tangentMode: -559038737
      - time: 12.3999996
        value: {x: 1530.03589, y: 47.6145477, z: 1442.28796}
        inSlope: {x: .0869339705, y: -.428660929, z: 2.56459332}
        outSlope: {x: .0869339705, y: -.428660929, z: 2.56459332}
        tangentMode: -559038737
      - time: 14.7000008
        value: {x: 1527.37354, y: 48.7144775, z: 1447.20667}
        inSlope: {x: -2.19992685, y: .256271541, z: 2.88468838}
        outSlope: {x: -2.19992685, y: .256271541, z: 2.88468838}
        tangentMode: -559038737
      - time: 20.4333324
        value: {x: 1508.7843, y: 48.9112053, z: 1468.02332}
        inSlope: {x: -3.3817296, y: .0490193069, z: 5.76791048}
        outSlope: {x: -3.3817296, y: .0490193069, z: 5.76791048}
        tangentMode: -559038737
      - time: 32.6500015
        value: {x: 1465.76758, y: 49.6897202, z: 1564.59619}
        inSlope: {x: -2.93698502, y: -.0444756746, z: 5.7971859}
        outSlope: {x: -2.93698502, y: -.0444756746, z: 5.7971859}
        tangentMode: -559038737
      - time: 43.7000008
        value: {x: 1439.76892, y: 48.0026398, z: 1605.36365}
        inSlope: {x: -1.69414496, y: -.222305089, z: 3.40287924}
        outSlope: {x: -1.69414496, y: -.222305089, z: 3.40287924}
        tangentMode: -559038737
      - time: 48.8833351
        value: {x: 1434.40173, y: 46.4894524, z: 1621.51697}
        inSlope: {x: -1.48948574, y: -.332806289, z: 2.8486073}
        outSlope: {x: -1.48948574, y: -.332806289, z: 2.8486073}
        tangentMode: -559038737
      - time: 55.5
        value: {x: 1421.54224, y: 44.0169411, z: 1638.59338}
        inSlope: {x: -.542461038, y: .573729396, z: 3.62787724}
        outSlope: {x: -.542461038, y: .573729396, z: 3.62787724}
        tangentMode: -559038737
      - time: 59.9500008
        value: {x: 1425.36292, y: 50.7860069, z: 1659.39685}
        inSlope: {x: .858579338, y: 1.52113819, z: 4.67493534}
        outSlope: {x: .858579338, y: 1.52113819, z: 4.67493534}
        tangentMode: -559038737
      m_PreInfinity: 2
      m_PostInfinity: 2
    path: 
  m_ScaleCurves: []
  m_FloatCurves: []
  m_PPtrCurves: []
  m_SampleRate: 60
  m_WrapMode: 0
  m_Bounds:
    m_Center: {x: 0, y: 0, z: 0}
    m_Extent: {x: 0, y: 0, z: 0}
  m_AnimationClipSettings:
    serializedVersion: 2
    m_StartTime: 0
    m_StopTime: 1
    m_OrientationOffsetY: 0
    m_Level: 0
    m_CycleOffset: 0
    m_LoopTime: 0
    m_LoopBlend: 0
    m_LoopBlendOrientation: 0
    m_LoopBlendPositionY: 0
    m_LoopBlendPositionXZ: 0
    m_KeepOriginalOrientation: 0
    m_KeepOriginalPositionY: 1
    m_KeepOriginalPositionXZ: 0
    m_HeightFromFeet: 0
    m_Mirror: 0
  m_EditorCurves:
  - curve:
      serializedVersion: 2
      m_Curve:
      - time: 0
        value: 1523.96387
        inSlope: -.199759513
        outSlope: -.199759513
        tangentMode: 10
      - time: 6.81666851
        value: 1522.60217
        inSlope: .565826416
        outSlope: .565826416
        tangentMode: 10
      - time: 12.3999996
        value: 1530.03589
        inSlope: .0869339705
        outSlope: .0869339705
        tangentMode: 10
      - time: 14.7000008
        value: 1527.37354
        inSlope: -2.19992685
        outSlope: -2.19992685
        tangentMode: 10
      - time: 20.4333324
        value: 1508.7843
        inSlope: -3.3817296
        outSlope: -3.3817296
        tangentMode: 10
      - time: 32.6500015
        value: 1465.76758
        inSlope: -2.93698502
        outSlope: -2.93698502
        tangentMode: 10
      - time: 43.7000008
        value: 1439.76892
        inSlope: -1.69414496
        outSlope: -1.69414496
        tangentMode: 10
      - time: 48.8833351
        value: 1434.40173
        inSlope: -1.48948574
        outSlope: -1.48948574
        tangentMode: 10
      - time: 55.5
        value: 1421.54224
        inSlope: -.542461038
        outSlope: -.542461038
        tangentMode: 10
      - time: 59.9500008
        value: 1425.36292
        inSlope: .858579338
        outSlope: .858579338
        tangentMode: 10
      m_PreInfinity: 2
      m_PostInfinity: 2
    attribute: m_LocalPosition.x
    path: 
    classID: 4
    script: {fileID: 0}
  - curve:
      serializedVersion: 2
      m_Curve:
      - time: 0
        value: 48.0270348
        inSlope: 1.03339958
        outSlope: 1.03339958
        tangentMode: 10
      - time: 6.81666851
        value: 55.0713768
        inSlope: -.151076198
        outSlope: -.151076198
        tangentMode: 10
      - time: 12.3999996
        value: 47.6145477
        inSlope: -.428660929
        outSlope: -.428660929
        tangentMode: 10
      - time: 14.7000008
        value: 48.7144775
        inSlope: .256271541
        outSlope: .256271541
        tangentMode: 10
      - time: 20.4333324
        value: 48.9112053
        inSlope: .0490193069
        outSlope: .0490193069
        tangentMode: 10
      - time: 32.6500015
        value: 49.6897202
        inSlope: -.0444756746
        outSlope: -.0444756746
        tangentMode: 10
      - time: 43.7000008
        value: 48.0026398
        inSlope: -.222305089
        outSlope: -.222305089
        tangentMode: 10
      - time: 48.8833351
        value: 46.4894524
        inSlope: -.332806289
        outSlope: -.332806289
        tangentMode: 10
      - time: 55.5
        value: 44.0169411
        inSlope: .573729396
        outSlope: .573729396
        tangentMode: 10
      - time: 59.9500008
        value: 50.7860069
        inSlope: 1.52113819
        outSlope: 1.52113819
        tangentMode: 10
      m_PreInfinity: 2
      m_PostInfinity: 2
    attribute: m_LocalPosition.y
    path: 
    classID: 4
    script: {fileID: 0}
  - curve:
      serializedVersion: 2
      m_Curve:
      - time: 0
        value: 1407.41809
        inSlope: 2.66585374
        outSlope: 2.66585374
        tangentMode: 10
      - time: 6.81666851
        value: 1425.59033
        inSlope: 2.82823777
        outSlope: 2.82823777
        tangentMode: 10
      - time: 12.3999996
        value: 1442.28796
        inSlope: 2.56459332
        outSlope: 2.56459332
        tangentMode: 10
      - time: 14.7000008
        value: 1447.20667
        inSlope: 2.88468838
        outSlope: 2.88468838
        tangentMode: 10
      - time: 20.4333324
        value: 1468.02332
        inSlope: 5.76791048
        outSlope: 5.76791048
        tangentMode: 10
      - time: 32.6500015
        value: 1564.59619
        inSlope: 5.7971859
        outSlope: 5.7971859
        tangentMode: 10
      - time: 43.7000008
        value: 1605.36365
        inSlope: 3.40287924
        outSlope: 3.40287924
        tangentMode: 10
      - time: 48.8833351
        value: 1621.51697
        inSlope: 2.8486073
        outSlope: 2.8486073
        tangentMode: 10
      - time: 55.5
        value: 1638.59338
        inSlope: 3.62787724
        outSlope: 3.62787724
        tangentMode: 10
      - time: 59.9500008
        value: 1659.39685
        inSlope: 4.67493534
        outSlope: 4.67493534
        tangentMode: 10
      m_PreInfinity: 2
      m_PostInfinity: 2
    attribute: m_LocalPosition.z
    path: 
    classID: 4
    script: {fileID: 0}
  - curve:
      serializedVersion: 2
      m_Curve:
      - time: 0
        value: -0
        inSlope: -.00276209321
        outSlope: -.00276209321
        tangentMode: 0
      - time: .833333194
        value: -.00366109284
        inSlope: -.00614920072
        outSlope: -.00614920072
        tangentMode: 0
      - time: 1.66666579
        value: -.0103164818
        inSlope: -.00980940647
        outSlope: -.00980940647
        tangentMode: 0
      - time: 2.49999833
        value: -.019892469
        inSlope: -.0130461091
        outSlope: -.0130461091
        tangentMode: 0
      - time: 3.33333087
        value: -.0317588821
        inSlope: -.0152007639
        outSlope: -.0152007639
        tangentMode: 0
      - time: 4.14999866
        value: -.0444993488
        inSlope: -.0156912729
        outSlope: -.0156912729
        tangentMode: 0
      - time: 4.96667624
        value: -.0568268821
        inSlope: -.014124101
        outSlope: -.014124101
        tangentMode: 0
      - time: 5.78335381
        value: -.0669217184
        inSlope: -.0101822
        outSlope: -.0101822
        tangentMode: 0
      - time: 6.60003138
        value: -.0727616921
        inSlope: -.00368575286
        outSlope: -.00368575286
        tangentMode: 0
      - time: 7.41670895
        value: -.0713171959
        inSlope: .00803221483
        outSlope: .00803221483
        tangentMode: 0
      - time: 8.23337936
        value: -.0602042079
        inSlope: .0186608601
        outSlope: .0186608601
        tangentMode: 0
      - time: 9.06669998
        value: -.0413396806
        inSlope: .0259803832
        outSlope: .0259803832
        tangentMode: 0
      - time: 9.9000206
        value: -.0179988146
        inSlope: .0293637626
        outSlope: .0293637626
        tangentMode: 0
      - time: 10.7333412
        value: .00645152992
        inSlope: .0286113098
        outSlope: .0286113098
        tangentMode: 0
      - time: 11.5666618
        value: .0284655951
        inSlope: .0234535933
        outSlope: .0234535933
        tangentMode: 0
      - time: 12.3999825
        value: .0441651307
        inSlope: .0133692278
        outSlope: .0133692278
        tangentMode: 0
      - time: 13.2333031
        value: .0533462949
        inSlope: .00872513559
        outSlope: .00872513559
        tangentMode: 0
      - time: 14.0666237
        value: .0587277301
        inSlope: .00420822669
        outSlope: .00420822669
        tangentMode: 0
      - time: 14.8999443
        value: .0604209602
        inSlope: -8.18086264e-05
        outSlope: -8.18086264e-05
        tangentMode: 0
      - time: 15.7332649
        value: .0587485544
        inSlope: -.00380488345
        outSlope: -.00380488345
        tangentMode: 0
      - time: 16.5665855
        value: .0543441251
        inSlope: -.00657888874
        outSlope: -.00657888874
        tangentMode: 0
      - time: 17.3999062
        value: .0481322668
        inSlope: -.00810464192
        outSlope: -.00810464192
        tangentMode: 0
      - time: 18.2332268
        value: .0412245765
        inSlope: -.00823841896
        outSlope: -.00823841896
        tangentMode: 0
      - time: 19.0665474
        value: .0347878449
        inSlope: -.00698524946
        outSlope: -.00698524946
        tangentMode: 0
      - time: 19.899868
        value: .0299422424
        inSlope: -.00443700003
        outSlope: -.00443700003
        tangentMode: 0
      - time: 20.7331886
        value: .0274311807
        inSlope: -.00268247351
        outSlope: -.00268247351
        tangentMode: 0
      - time: 21.5665092
        value: .0246402957
        inSlope: -.00398442615
        outSlope: -.00398442615
        tangentMode: 0
      - time: 22.3998299
        value: .020841334
        inSlope: -.00510331616
        outSlope: -.00510331616
        tangentMode: 0
      - time: 23.2331505
        value: .0161837023
        inSlope: -.00604590308
        outSlope: -.00604590308
        tangentMode: 0
      - time: 24.0664711
        value: .0108138006
        inSlope: -.00681227213
        outSlope: -.00681227213
        tangentMode: 0
      - time: 24.8997917
        value: .00488090189
        inSlope: -.00739543792
        outSlope: -.00739543792
        tangentMode: 0
      - time: 25.7331123
        value: -.00145743228
        inSlope: -.00778291468
        outSlope: -.00778291468
        tangentMode: 0
      - time: 26.566433
        value: -.00803185254
        inSlope: -.00795946456
        outSlope: -.00795946456
        tangentMode: 0
      - time: 27.3997536
        value: -.0146605168
        inSlope: -.0079110451
        outSlope: -.0079110451
        tangentMode: 0
      - time: 28.2330742
        value: -.0211515203
        inSlope: -.00762809534
        outSlope: -.00762809534
        tangentMode: 0
      - time: 29.0663948
        value: -.0273082908
        inSlope: -.00710941525
        outSlope: -.00710941525
        tangentMode: 0
      - time: 29.8997154
        value: -.0329373777
        inSlope: -.00636419654
        outSlope: -.00636419654
        tangentMode: 0
      - time: 30.733036
        value: -.0378577262
        inSlope: -.00541289244
        outSlope: -.00541289244
        tangentMode: 0
      - time: 31.5663567
        value: -.0419103168
        inSlope: -.00428779982
        outSlope: -.00428779982
        tangentMode: 0
      - time: 32.3996773
        value: -.0449668318
        inSlope: -.0030298247
        outSlope: -.0030298247
        tangentMode: 0
      - time: 33.2329979
        value: -.0469362848
        inSlope: -.00168679992
        outSlope: -.00168679992
        tangentMode: 0
      - time: 34.0663185
        value: -.0477684475
        inSlope: -.000308458752
        outSlope: -.000308458752
        tangentMode: 0
      - time: 34.8996391
        value: -.0474534109
        inSlope: .00105948874
        outSlope: .00105948874
        tangentMode: 0
      - time: 35.7329597
        value: -.0460167713
        inSlope: .00237814989
        outSlope: .00237814989
        tangentMode: 0
      - time: 36.5662804
        value: -.0435104668
        inSlope: .00362371979
        outSlope: .00362371979
        tangentMode: 0
      - time: 37.399601
        value: -.039999593
        inSlope: .0047897161
        outSlope: .0047897161
        tangentMode: 0
      - time: 38.2329216
        value: -.0355456918
        inSlope: .00589156197
        outSlope: .00589156197
        tangentMode: 0
      - time: 39.0662422
        value: -.0301875174
        inSlope: .00696870871
        outSlope: .00696870871
        tangentMode: 0
      - time: 39.8995628
        value: -.023920292
        inSlope: .00808636844
        outSlope: .00808636844
        tangentMode: 0
      - time: 40.7328835
        value: -.0166747347
        inSlope: .00933355931
        outSlope: .00933355931
        tangentMode: 0
      - time: 41.5662041
        value: -.0082976697
        inSlope: .010822013
        outSlope: .010822013
        tangentMode: 0
      - time: 42.3995247
        value: .00146366272
        inSlope: .0126778223
        outSlope: .0126778223
        tangentMode: 0
      - time: 43.2328453
        value: .0129702864
        inSlope: .0150321946
        outSlope: .0150321946
        tangentMode: 0
      - time: 44.0661659
        value: .027315326
        inSlope: .0214277133
        outSlope: .0214277133
        tangentMode: 0
      - time: 44.8994865
        value: .0498839356
        inSlope: .0327780992
        outSlope: .0327780992
        tangentMode: 0
      - time: 45.7328072
        value: .0817056149
        inSlope: .0432204343
        outSlope: .0432204343
        tangentMode: 0
      - time: 46.5661278
        value: .120889403
        inSlope: .0499886461
        outSlope: .0499886461
        tangentMode: 0
      - time: 47.3994484
        value: .163416013
        inSlope: .0510584153
        outSlope: .0510584153
        tangentMode: 0
      - time: 48.232769
        value: .204394966
        inSlope: .0464610383
        outSlope: .0464610383
        tangentMode: 0
      - time: 49.0660896
        value: .240123823
        inSlope: .0418216437
        outSlope: .0418216437
        tangentMode: 0
      - time: 49.8994102
        value: .277551115
        inSlope: .0473354533
        outSlope: .0473354533
        tangentMode: 0
      - time: 50.7327309
        value: .317957342
        inSlope: .0490315296
        outSlope: .0490315296
        tangentMode: 0
      - time: 51.5660515
        value: .358289629
        inSlope: .0471941866
        outSlope: .0471941866
        tangentMode: 0
      - time: 52.3993721
        value: .395679116
        inSlope: .0419879407
        outSlope: .0419879407
        tangentMode: 0
      - time: 53.2326927
        value: .427358001
        inSlope: .0334977284
        outSlope: .0334977284
        tangentMode: 0
      - time: 54.0660133
        value: .450607747
        inSlope: .021757517
        outSlope: .021757517
        tangentMode: 0
      - time: 54.899334
        value: .462702423
        inSlope: .00670741312
        outSlope: .00670741312
        tangentMode: 0
      - time: 55.7326546
        value: .460588187
        inSlope: -.0136776865
        outSlope: -.0136776865
        tangentMode: 0
      - time: 56.5659752
        value: .439667314
        inSlope: -.0352903605
        outSlope: -.0352903605
        tangentMode: 0
      - time: 57.3992958
        value: .403805882
        inSlope: -.0495465212
        outSlope: -.0495465212
        tangentMode: 0
      - time: 58.2326164
        value: .359193772
        inSlope: -.0562181696
        outSlope: -.0562181696
        tangentMode: 0
      - time: 59.065937
        value: .312353283
        inSlope: -.0548144579
        outSlope: -.0548144579
        tangentMode: 0
      - time: 59.8992577
        value: .270177364
        inSlope: -.0449902713
        outSlope: -.0449902713
        tangentMode: 0
      - time: 59.9500008
        value: .267916292
        inSlope: -.0442731157
        outSlope: -.0442731157
        tangentMode: 0
      m_PreInfinity: 2
      m_PostInfinity: 2
    attribute: m_LocalRotation.x
    path: 
    classID: 4
    script: {fileID: 0}
  - curve:
      serializedVersion: 2
      m_Curve:
      - time: 0
        value: .986989677
        inSlope: -.0124669066
        outSlope: -.0124669066
        tangentMode: 0
      - time: .833333194
        value: .974223554
        inSlope: -.0182962585
        outSlope: -.0182962585
        tangentMode: 0
      - time: 1.66666579
        value: .95644623
        inSlope: -.0243598446
        outSlope: -.0243598446
        tangentMode: 0
      - time: 2.49999833
        value: .933709145
        inSlope: -.0301158708
        outSlope: -.0301158708
        tangentMode: 0
      - time: 3.33333087
        value: .906476259
        inSlope: -.0350725986
        outSlope: -.0350725986
        tangentMode: 0
      - time: 4.14999866
        value: .876244307
        inSlope: -.0387413092
        outSlope: -.0387413092
        tangentMode: 0
      - time: 4.96667624
        value: .843601584
        inSlope: -.0409353264
        outSlope: -.0409353264
        tangentMode: 0
      - time: 5.78335381
        value: .809827685
        inSlope: -.0414950065
        outSlope: -.0414950065
        tangentMode: 0
      - time: 6.60003138
        value: .776275039
        inSlope: -.0404024683
        outSlope: -.0404024683
        tangentMode: 0
      - time: 7.41670895
        value: .745173216
        inSlope: -.0350399092
        outSlope: -.0350399092
        tangentMode: 0
      - time: 8.23337936
        value: .718489408
        inSlope: -.0307975933
        outSlope: -.0307975933
        tangentMode: 0
      - time: 9.06669998
        value: .693531811
        inSlope: -.0296567436
        outSlope: -.0296567436
        tangentMode: 0
      - time: 9.9000206
        value: .668139815
        inSlope: -.0318329409
        outSlope: -.0318329409
        tangentMode: 0
      - time: 10.7333412
        value: .63957715
        inSlope: -.0372546613
        outSlope: -.0372546613
        tangentMode: 0
      - time: 11.5666618
        value: .605145872
        inSlope: -.0459415764
        outSlope: -.0459415764
        tangentMode: 0
      - time: 12.3999825
        value: .562005043
        inSlope: -.0582763478
        outSlope: -.0582763478
        tangentMode: 0
      - time: 13.2333031
        value: .506058037
        inSlope: -.0755714923
        outSlope: -.0755714923
        tangentMode: 0
      - time: 14.0666237
        value: .436895937
        inSlope: -.08984375
        outSlope: -.08984375
        tangentMode: 0
      - time: 14.8999443
        value: .357409894
        inSlope: -.100188293
        outSlope: -.100188293
        tangentMode: 0
      - time: 15.7332649
        value: .271271199
        inSlope: -.105665445
        outSlope: -.105665445
        tangentMode: 0
      - time: 16.5665855
        value: .182861626
        inSlope: -.105545193
        outSlope: -.105545193
        tangentMode: 0
      - time: 17.3999062
        value: .0970218033
        inSlope: -.0994730294
        outSlope: -.0994730294
        tangentMode: 0
      - time: 18.2332268
        value: .0187167842
        inSlope: -.0874996334
        outSlope: -.0874996334
        tangentMode: 0
      - time: 19.0665474
        value: -.0472653471
        inSlope: -.0699710697
        outSlope: -.0699710697
        tangentMode: 0
      - time: 19.899868
        value: -.0964810401
        inSlope: -.0473276302
        outSlope: -.0473276302
        tangentMode: 0
      - time: 20.7331886
        value: -.125643566
        inSlope: -.0255529005
        outSlope: -.0255529005
        tangentMode: 0
      - time: 21.5665092
        value: -.141668186
        inSlope: -.0130817797
        outSlope: -.0130817797
        tangentMode: 0
      - time: 22.3998299
        value: -.147730544
        inSlope: -.00163438427
        outSlope: -.00163438427
        tangentMode: 0
      - time: 23.2331505
        value: -.144662544
        inSlope: .00883801281
        outSlope: .00883801281
        tangentMode: 0
      - time: 24.0664711
        value: -.133259758
        inSlope: .0183738582
        outSlope: .0183738582
        tangentMode: 0
      - time: 24.8997917
        value: -.114295974
        inSlope: .026985893
        outSlope: .026985893
        tangentMode: 0
      - time: 25.7331123
        value: -.0885425732
        inSlope: .0346658453
        outSlope: .0346658453
        tangentMode: 0
      - time: 26.566433
        value: -.0567876548
        inSlope: .0413833186
        outSlope: .0413833186
        tangentMode: 0
      - time: 27.3997536
        value: -.0198513642
        inSlope: .0470928773
        outSlope: .0470928773
        tangentMode: 0
      - time: 28.2330742
        value: .0214051548
        inSlope: .0517431162
        outSlope: .0517431162
        tangentMode: 0
      - time: 29.0663948
        value: .0660781711
        inSlope: .0552845225
        outSlope: .0552845225
        tangentMode: 0
      - time: 29.8997154
        value: .113227367
        inSlope: .0576811135
        outSlope: .0576811135
        tangentMode: 0
      - time: 30.733036
        value: .161888823
        inSlope: .0589133836
        outSlope: .0589133836
        tangentMode: 0
      - time: 31.5663567
        value: .211093172
        inSlope: .0589875951
        outSlope: .0589875951
        tangentMode: 0
      - time: 32.3996773
        value: .25988692
        inSlope: .0579365976
        outSlope: .0579365976
        tangentMode: 0
      - time: 33.2329979
        value: .30735454
        inSlope: .0558167286
        outSlope: .0558167286
        tangentMode: 0
      - time: 34.0663185
        value: .352638245
        inSlope: .052708894
        outSlope: .052708894
        tangentMode: 0
      - time: 34.8996391
        value: .394953549
        inSlope: .0487087667
        outSlope: .0487087667
        tangentMode: 0
      - time: 35.7329597
        value: .433597237
        inSlope: .0439146906
        outSlope: .0439146906
        tangentMode: 0
      - time: 36.5662804
        value: .46794796
        inSlope: .0384196565
        outSlope: .0384196565
        tangentMode: 0
      - time: 37.399601
        value: .497456402
        inSlope: .0323014408
        outSlope: .0323014408
        tangentMode: 0
      - time: 38.2329216
        value: .521626294
        inSlope: .025611911
        outSlope: .025611911
        tangentMode: 0
      - time: 39.0662422
        value: .539986193
        inSlope: .0183555298
        outSlope: .0183555298
        tangentMode: 0
      - time: 39.8995628
        value: .552053273
        inSlope: .0104983263
        outSlope: .0104983263
        tangentMode: 0
      - time: 40.7328835
        value: .557292044
        inSlope: .00194731355
        outSlope: .00194731355
        tangentMode: 0
      - time: 41.5662041
        value: .555070162
        inSlope: -.00743519701
        outSlope: -.00743519701
        tangentMode: 0
      - time: 42.3995247
        value: .544616759
        inSlope: -.0178423263
        outSlope: -.0178423263
        tangentMode: 0
      - time: 43.2328453
        value: .524989009
        inSlope: -.0294922329
        outSlope: -.0294922329
        tangentMode: 0
      - time: 44.0661659
        value: .492100447
        inSlope: -.0583282076
        outSlope: -.0583282076
        tangentMode: 0
      - time: 44.8994865
        value: .425573438
        inSlope: -.0993514359
        outSlope: -.0993514359
        tangentMode: 0
      - time: 45.7328072
        value: .330242872
        inSlope: -.126901716
        outSlope: -.126901716
        tangentMode: 0
      - time: 46.5661278
        value: .218842611
        inSlope: -.137332991
        outSlope: -.137332991
        tangentMode: 0
      - time: 47.3994484
        value: .1068011
        inSlope: -.128265649
        outSlope: -.128265649
        tangentMode: 0
      - time: 48.232769
        value: .0103899492
        inSlope: -.100111514
        outSlope: -.100111514
        tangentMode: 0
      - time: 49.0660896
        value: -.0560036711
        inSlope: -.0618339069
        outSlope: -.0618339069
        tangentMode: 0
      - time: 49.8994102
        value: -.0995824337
        inSlope: -.0434271917
        outSlope: -.0434271917
        tangentMode: 0
      - time: 50.7327309
        value: -.129524216
        inSlope: -.0291265529
        outSlope: -.0291265529
        tangentMode: 0
      - time: 51.5660515
        value: -.149270952
        inSlope: -.0189416036
        outSlope: -.0189416036
        tangentMode: 0
      - time: 52.3993721
        value: -.162188619
        inSlope: -.012695536
        outSlope: -.012695536
        tangentMode: 0
      - time: 53.2326927
        value: -.171448112
        inSlope: -.0101125296
        outSlope: -.0101125296
        tangentMode: 0
      - time: 54.0660133
        value: -.179985136
        inSlope: -.0109261451
        outSlope: -.0109261451
        tangentMode: 0
      - time: 54.899334
        value: -.190566763
        inSlope: -.0150223877
        outSlope: -.0150223877
        tangentMode: 0
      - time: 55.7326546
        value: -.205687806
        inSlope: -.0200149491
        outSlope: -.0200149491
        tangentMode: 0
      - time: 56.5659752
        value: -.222406179
        inSlope: -.0202210359
        outSlope: -.0202210359
        tangentMode: 0
      - time: 57.3992958
        value: -.239507034
        inSlope: -.0208540466
        outSlope: -.0208540466
        tangentMode: 0
      - time: 58.2326164
        value: -.257168144
        inSlope: -.0215143263
        outSlope: -.0215143263
        tangentMode: 0
      - time: 59.065937
        value: -.275307894
        inSlope: -.02197925
        outSlope: -.02197925
        tangentMode: 0
      - time: 59.8992577
        value: -.293723524
        inSlope: -.0221741609
        outSlope: -.0221741609
        tangentMode: 0
      - time: 59.9500008
        value: -.2948488
        inSlope: -.0221759286
        outSlope: -.0221759286
        tangentMode: 0
      m_PreInfinity: 2
      m_PostInfinity: 2
    attribute: m_LocalRotation.y
    path: 
    classID: 4
    script: {fileID: 0}
  - curve:
      serializedVersion: 2
      m_Curve:
      - time: 0
        value: -0
        inSlope: -.0168190133
        outSlope: -.0168190133
        tangentMode: 0
      - time: .833333194
        value: -.015852306
        inSlope: -.0208568219
        outSlope: -.0208568219
        tangentMode: 0
      - time: 1.66666579
        value: -.0340562053
        inSlope: -.0224132296
        outSlope: -.0224132296
        tangentMode: 0
      - time: 2.49999833
        value: -.0525277741
        inSlope: -.0215260889
        outSlope: -.0215260889
        tangentMode: 0
      - time: 3.33333087
        value: -.0693175569
        inSlope: -.0184263457
        outSlope: -.0184263457
        tangentMode: 0
      - time: 4.14999866
        value: -.0824949369
        inSlope: -.0135785025
        outSlope: -.0135785025
        tangentMode: 0
      - time: 4.96667624
        value: -.091118075
        inSlope: -.00734244892
        outSlope: -.00734244892
        tangentMode: 0
      - time: 5.78335381
        value: -.0942241699
        inSlope: -.000134779199
        outSlope: -.000134779199
        tangentMode: 0
      - time: 6.60003138
        value: -.0911741257
        inSlope: .00767995603
        outSlope: .00767995603
        tangentMode: 0
      - time: 7.41670895
        value: -.0807518438
        inSlope: .0181399845
        outSlope: .0181399845
        tangentMode: 0
      - time: 8.23337936
        value: -.062682122
        inSlope: .0253854841
        outSlope: .0253854841
        tangentMode: 0
      - time: 9.06669998
        value: -.0399236642
        inSlope: .0285613798
        outSlope: .0285613798
        tangentMode: 0
      - time: 9.9000206
        value: -.0161713865
        inSlope: .0278035328
        outSlope: .0278035328
        tangentMode: 0
      - time: 10.7333412
        value: .00536796218
        inSlope: .0232795812
        outSlope: .0232795812
        tangentMode: 0
      - time: 11.5666618
        value: .0216592569
        inSlope: .0152835716
        outSlope: .0152835716
        tangentMode: 0
      - time: 12.3999825
        value: .0300712846
        inSlope: .00457211863
        outSlope: .00457211863
        tangentMode: 0
      - time: 13.2333031
        value: .0314336233
        inSlope: -.00104093645
        outSlope: -.00104093645
        tangentMode: 0
      - time: 14.0666237
        value: .0287780315
        inSlope: -.0050460943
        outSlope: -.0050460943
        tangentMode: 0
      - time: 14.8999443
        value: .0235136412
        inSlope: -.007295385
        outSlope: -.007295385
        tangentMode: 0
      - time: 15.7332649
        value: .0170828979
        inSlope: -.00788330007
        outSlope: -.00788330007
        tangentMode: 0
      - time: 16.5665855
        value: .0107433349
        inSlope: -.00715082232
        outSlope: -.00715082232
        tangentMode: 0
      - time: 17.3999062
        value: .00538944406
        inSlope: -.00561235659
        outSlope: -.00561235659
        tangentMode: 0
      - time: 18.2332268
        value: .0014529404
        inSlope: -.00384316477
        outSlope: -.00384316477
        tangentMode: 0
      - time: 19.0665474
        value: -.00109395944
        inSlope: -.00234924234
        outSlope: -.00234924234
        tangentMode: 0
      - time: 19.899868
        value: -.00262938091
        inSlope: -.00144690624
        outSlope: -.00144690624
        tangentMode: 0
      - time: 20.7331886
        value: -.00366991549
        inSlope: -.00108316098
        outSlope: -.00108316098
        tangentMode: 0
      - time: 21.5665092
        value: -.00443487754
        inSlope: -.000762583222
        outSlope: -.000762583222
        tangentMode: 0
      - time: 22.3998299
        value: -.00496751396
        inSlope: -.000537078595
        outSlope: -.000537078595
        tangentMode: 0
      - time: 23.2331505
        value: -.00537199108
        inSlope: -.000462143274
        outSlope: -.000462143274
        tangentMode: 0
      - time: 24.0664711
        value: -.00578832859
        inSlope: -.000568790711
        outSlope: -.000568790711
        tangentMode: 0
      - time: 24.8997917
        value: -.00637309207
        inSlope: -.000866199087
        outSlope: -.000866199087
        tangentMode: 0
      - time: 25.7331123
        value: -.00728223147
        inSlope: -.00134410057
        outSlope: -.00134410057
        tangentMode: 0
      - time: 26.566433
        value: -.00865589734
        inSlope: -.00197522575
        outSlope: -.00197522575
        tangentMode: 0
      - time: 27.3997536
        value: -.0106053082
        inSlope: -.00271787355
        outSlope: -.00271787355
        tangentMode: 0
      - time: 28.2330742
        value: -.0132019427
        inSlope: -.00351894414
        outSlope: -.00351894414
        tangentMode: 0
      - time: 29.0663948
        value: -.0164694563
        inSlope: -.00431736093
        outSlope: -.00431736093
        tangentMode: 0
      - time: 29.8997154
        value: -.0203788057
        inSlope: -.00504849758
        outSlope: -.00504849758
        tangentMode: 0
      - time: 30.733036
        value: -.0248468705
        inSlope: -.00564798014
        outSlope: -.00564798014
        tangentMode: 0
      - time: 31.5663567
        value: -.0297387484
        inSlope: -.0060564084
        outSlope: -.0060564084
        tangentMode: 0
      - time: 32.3996773
        value: -.0348735265
        inSlope: -.00622349046
        outSlope: -.00622349046
        tangentMode: 0
      - time: 33.2329979
        value: -.0400330909
        inSlope: -.0061106123
        outSlope: -.0061106123
        tangentMode: 0
      - time: 34.0663185
        value: -.044973243
        inSlope: -.00569408108
        outSlope: -.00569408108
        tangentMode: 0
      - time: 34.8996391
        value: -.049436219
        inSlope: -.00496506784
        outSlope: -.00496506784
        tangentMode: 0
      - time: 35.7329597
        value: -.0531635396
        inSlope: -.00393106043
        outSlope: -.00393106043
        tangentMode: 0
      - time: 36.5662804
        value: -.0559085123
        inSlope: -.00261228788
        outSlope: -.00261228788
        tangentMode: 0
      - time: 37.399601
        value: -.0574475974
        inSlope: -.00104328338
        outSlope: -.00104328338
        tangentMode: 0
      - time: 38.2329216
        value: -.057590507
        inSlope: .00073024258
        outSlope: .00073024258
        tangentMode: 0
      - time: 39.0662422
        value: -.0561894476
        inSlope: .00265185116
        outSlope: .00265185116
        tangentMode: 0
      - time: 39.8995628
        value: -.0531482659
        inSlope: .0046540387
        outSlope: .0046540387
        tangentMode: 0
      - time: 40.7328835
        value: -.0484332554
        inSlope: .00665387977
        outSlope: .00665387977
        tangentMode: 0
      - time: 41.5662041
        value: -.0420876108
        inSlope: .00854821876
        outSlope: .00854821876
        tangentMode: 0
      - time: 42.3995247
        value: -.0342523195
        inSlope: .0102037257
        outSlope: .0102037257
        tangentMode: 0
      - time: 43.2328453
        value: -.0251962077
        inSlope: .0114446022
        outSlope: .0114446022
        tangentMode: 0
      - time: 44.0661659
        value: -.0147978431
        inSlope: .0149082523
        outSlope: .0149082523
        tangentMode: 0
      - time: 44.8994865
        value: -.00112148141
        inSlope: .0166901723
        outSlope: .0166901723
        tangentMode: 0
      - time: 45.7328072
        value: .0110344337
        inSlope: .0114043672
        outSlope: .0114043672
        tangentMode: 0
      - time: 46.5661278
        value: .0164757837
        inSlope: .00111525715
        outSlope: .00111525715
        tangentMode: 0
      - time: 47.3994484
        value: .0126436111
        inSlope: -.0100436844
        outSlope: -.0100436844
        tangentMode: 0
      - time: 48.232769
        value: .000873382494
        inSlope: -.017143555
        outSlope: -.017143555
        tangentMode: 0
      - time: 49.0660896
        value: -.0138393175
        inSlope: -.0180199407
        outSlope: -.0180199407
        tangentMode: 0
      - time: 49.8994102
        value: -.0300877076
        inSlope: -.0207150728
        outSlope: -.0207150728
        tangentMode: 0
      - time: 50.7327309
        value: -.0478638336
        inSlope: -.0216344688
        outSlope: -.0216344688
        tangentMode: 0
      - time: 51.5660515
        value: -.0656531081
        inSlope: -.0207992829
        outSlope: -.0207992829
        tangentMode: 0
      - time: 52.3993721
        value: -.0821792409
        inSlope: -.0187115986
        outSlope: -.0187115986
        tangentMode: 0
      - time: 53.2326927
        value: -.0966856852
        inSlope: -.0160686895
        outSlope: -.0160686895
        tangentMode: 0
      - time: 54.0660133
        value: -.108977258
        inSlope: -.0134731643
        outSlope: -.0134731643
        tangentMode: 0
      - time: 54.899334
        value: -.119221397
        inSlope: -.011144748
        outSlope: -.011144748
        tangentMode: 0
      - time: 55.7326546
        value: -.127281189
        inSlope: -.00668595498
        outSlope: -.00668595498
        tangentMode: 0
      - time: 56.5659752
        value: -.1290057
        inSlope: .00232595764
        outSlope: .00232595764
        tangentMode: 0
      - time: 57.3992958
        value: -.123852804
        inSlope: .00971175637
        outSlope: .00971175637
        tangentMode: 0
      - time: 58.2326164
        value: -.113482364
        inSlope: .0147072235
        outSlope: .0147072235
        tangentMode: 0
      - time: 59.065937
        value: -.100248039
        inSlope: .0164395105
        outSlope: .0164395105
        tangentMode: 0
      - time: 59.8992577
        value: -.0872178599
        inSlope: .0140898591
        outSlope: .0140898591
        tangentMode: 0
      - time: 59.9500008
        value: -.0865101963
        inSlope: .0138503266
        outSlope: .0138503266
        tangentMode: 0
      m_PreInfinity: 2
      m_PostInfinity: 2
    attribute: m_LocalRotation.z
    path: 
    classID: 4
    script: {fileID: 0}
  - curve:
      serializedVersion: 2
      m_Curve:
      - time: 0
        value: -.160783619
        inSlope: -.076206021
        outSlope: -.076206021
        tangentMode: 0
      - time: .833333194
        value: -.224997103
        inSlope: -.0776504725
        outSlope: -.0776504725
        tangentMode: 0
      - time: 1.66666579
        value: -.289731622
        inSlope: -.0774327666
        outSlope: -.0774327666
        tangentMode: 0
      - time: 2.49999833
        value: -.353599221
        inSlope: -.075590089
        outSlope: -.075590089
        tangentMode: 0
      - time: 3.33333087
        value: -.415315747
        inSlope: -.0723124221
        outSlope: -.0723124221
        tangentMode: 0
      - time: 4.14999866
        value: -.472662985
        inSlope: -.06797342
        outSlope: -.06797342
        tangentMode: 0
      - time: 4.96667624
        value: -.526122272
        inSlope: -.0628379583
        outSlope: -.0628379583
        tangentMode: 0
      - time: 5.78335381
        value: -.57517153
        inSlope: -.0572179072
        outSlope: -.0572179072
        tangentMode: 0
      - time: 6.60003138
        value: -.619507849
        inSlope: -.0513242781
        outSlope: -.0513242781
        tangentMode: 0
      - time: 7.41670895
        value: -.658110857
        inSlope: -.0427717194
        outSlope: -.0427717194
        tangentMode: 0
      - time: 8.23337936
        value: -.690086484
        inSlope: -.0359993726
        outSlope: -.0359993726
        tangentMode: 0
      - time: 9.06669998
        value: -.718130052
        inSlope: -.0317238644
        outSlope: -.0317238644
        tangentMode: 0
      - time: 9.9000206
        value: -.743642151
        inSlope: -.0299178157
        outSlope: -.0299178157
        tangentMode: 0
      - time: 10.7333412
        value: -.768681109
        inSlope: -.0305937417
        outSlope: -.0305937417
        tangentMode: 0
      - time: 11.5666618
        value: -.795310616
        inSlope: -.0337015763
        outSlope: -.0337015763
        tangentMode: 0
      - time: 12.3999825
        value: -.825406313
        inSlope: -.0387960635
        outSlope: -.0387960635
        tangentMode: 0
      - time: 13.2333031
        value: -.860274017
        inSlope: -.0439513475
        outSlope: -.0439513475
        tangentMode: 0
      - time: 14.0666237
        value: -.897131503
        inSlope: -.0436384194
        outSlope: -.0436384194
        tangentMode: 0
      - time: 14.8999443
        value: -.931694448
        inSlope: -.0386243984
        outSlope: -.0386243984
        tangentMode: 0
      - time: 15.7332649
        value: -.960556448
        inSlope: -.0302146524
        outSlope: -.0302146524
        tangentMode: 0
      - time: 16.5665855
        value: -.9815768
        inSlope: -.020104358
        outSlope: -.020104358
        tangentMode: 0
      - time: 17.3999062
        value: -.994103134
        inSlope: -.010129964
        outSlope: -.010129964
        tangentMode: 0
      - time: 18.2332268
        value: -.998973489
        inSlope: -.00198486494
        outSlope: -.00198486494
        tangentMode: 0
      - time: 19.0665474
        value: -.998275757
        inSlope: .00306849391
        outSlope: .00306849391
        tangentMode: 0
      - time: 19.899868
        value: -.994880795
        inSlope: .00446147565
        outSlope: .00446147565
        tangentMode: 0
      - time: 20.7331886
        value: -.991689384
        inSlope: .00316684321
        outSlope: .00316684321
        tangentMode: 0
      - time: 21.5665092
        value: -.989597559
        inSlope: .00177564949
        outSlope: .00177564949
        tangentMode: 0
      - time: 22.3998299
        value: -.988795578
        inSlope: .000135900671
        outSlope: .000135900671
        tangentMode: 0
      - time: 23.2331505
        value: -.989334166
        inSlope: -.00138940546
        outSlope: -.00138940546
        tangentMode: 0
      - time: 24.0664711
        value: -.991005242
        inSlope: -.0025427728
        outSlope: -.0025427728
        tangentMode: 0
      - time: 24.8997917
        value: -.993414283
        inSlope: -.00313465623
        outSlope: -.00313465623
        tangentMode: 0
      - time: 25.7331123
        value: -.996044755
        inSlope: -.00306134112
        outSlope: -.00306134112
        tangentMode: 0
      - time: 26.566433
        value: -.998316467
        inSlope: -.00227097166
        outSlope: -.00227097166
        tangentMode: 0
      - time: 27.3997536
        value: -.999639153
        inSlope: -.000790369697
        outSlope: -.000790369697
        tangentMode: 0
      - time: 28.2330742
        value: -.999459922
        inSlope: .00131430244
        outSlope: .00131430244
        tangentMode: 0
      - time: 29.0663948
        value: -.997304738
        inSlope: .00393039035
        outSlope: .00393039035
        tangentMode: 0
      - time: 29.8997154
        value: -.992813885
        inSlope: .00689338241
        outSlope: .00689338241
        tangentMode: 0
      - time: 30.733036
        value: -.985769451
        inSlope: .0100244619
        outSlope: .0100244619
        tangentMode: 0
      - time: 31.5663567
        value: -.976114094
        inSlope: .0131251439
        outSlope: .0131251439
        tangentMode: 0
      - time: 32.3996773
        value: -.963960886
        inSlope: .0159862097
        outSlope: .0159862097
        tangentMode: 0
      - time: 33.2329979
        value: -.949593425
        inSlope: .0184055995
        outSlope: .0184055995
        tangentMode: 0
      - time: 34.0663185
        value: -.933456898
        inSlope: .0202009194
        outSlope: .0202009194
        tangentMode: 0
      - time: 34.8996391
        value: -.916141868
        inSlope: .021211233
        outSlope: .021211233
        tangentMode: 0
      - time: 35.7329597
        value: -.898359358
        inSlope: .0213060062
        outSlope: .0213060062
        tangentMode: 0
      - time: 36.5662804
        value: -.880911946
        inSlope: .0203940403
        outSlope: .0203940403
        tangentMode: 0
      - time: 37.399601
        value: -.864660025
        inSlope: .0184306335
        outSlope: .0184306335
        tangentMode: 0
      - time: 38.2329216
        value: -.850485623
        inSlope: .0154122077
        outSlope: .0154122077
        tangentMode: 0
      - time: 39.0662422
        value: -.839253485
        inSlope: .0113816801
        outSlope: .0113816801
        tangentMode: 0
      - time: 39.8995628
        value: -.831769347
        inSlope: .00643918803
        outSlope: .00643918803
        tangentMode: 0
      - time: 40.7328835
        value: -.828735054
        inSlope: .000731360167
        outSlope: .000731360167
        tangentMode: 0
      - time: 41.5662041
        value: -.830696642
        inSlope: -.005507553
        outSlope: -.005507553
        tangentMode: 0
      - time: 42.3995247
        value: -.837983966
        inSlope: -.0119896568
        outSlope: -.0119896568
        tangentMode: 0
      - time: 43.2328453
        value: -.850637138
        inSlope: -.0183090381
        outSlope: -.0183090381
        tangentMode: 0
      - time: 44.0661659
        value: -.869983852
        inSlope: -.0325732455
        outSlope: -.0325732455
        tangentMode: 0
      - time: 44.8994865
        value: -.903547227
        inSlope: -.0450045764
        outSlope: -.0450045764
        tangentMode: 0
      - time: 45.7328072
        value: -.940288246
        inSlope: -.0406772122
        outSlope: -.0406772122
        tangentMode: 0
      - time: 46.5661278
        value: -.968102336
        inSlope: -.0247804131
        outSlope: -.0247804131
        tangentMode: 0
      - time: 47.3994484
        value: -.980677783
        inSlope: -.00558623252
        outSlope: -.00558623252
        tangentMode: 0
      - time: 48.232769
        value: -.97883296
        inSlope: .0086243283
        outSlope: .0086243283
        tangentMode: 0
      - time: 49.0660896
        value: -.969026685
        inSlope: .0141944671
        outSlope: .0141944671
        tangentMode: 0
      - time: 49.8994102
        value: -.955062032
        inSlope: .0189384725
        outSlope: .0189384725
        tangentMode: 0
      - time: 50.7327309
        value: -.937995613
        inSlope: .021744106
        outSlope: .021744106
        tangentMode: 0
      - time: 51.5660515
        value: -.919258654
        inSlope: .0229564831
        outSlope: .0229564831
        tangentMode: 0
      - time: 52.3993721
        value: -.900210798
        inSlope: .0224522203
        outSlope: .0224522203
        tangentMode: 0
      - time: 53.2326927
        value: -.882395923
        inSlope: .0199505761
        outSlope: .0199505761
        tangentMode: 0
      - time: 54.0660133
        value: -.867572546
        inSlope: .015260214
        outSlope: .015260214
        tangentMode: 0
      - time: 54.899334
        value: -.857541263
        inSlope: .00850630924
        outSlope: .00850630924
        tangentMode: 0
      - time: 55.7326546
        value: -.854020178
        inSlope: -.00155928126
        outSlope: -.00155928126
        tangentMode: 0
      - time: 56.5659752
        value: -.860572875
        inSlope: -.013151966
        outSlope: -.013151966
        tangentMode: 0
      - time: 57.3992958
        value: -.874206841
        inSlope: -.0185486525
        outSlope: -.0185486525
        tangentMode: 0
      - time: 58.2326164
        value: -.889924824
        inSlope: -.0183501653
        outSlope: -.0183501653
        tangentMode: 0
      - time: 59.065937
        value: -.903654456
        inSlope: -.0140782362
        outSlope: -.0140782362
        tangentMode: 0
      - time: 59.8992577
        value: -.912756026
        inSlope: -.00752818119
        outSlope: -.00752818119
        tangentMode: 0
      - time: 59.9500008
        value: -.913127005
        inSlope: -.00715860538
        outSlope: -.00715860538
        tangentMode: 0
      m_PreInfinity: 2
      m_PostInfinity: 2
    attribute: m_LocalRotation.w
    path: 
    classID: 4
    script: {fileID: 0}
  m_EulerEditorCurves:
  - curve:
      serializedVersion: 2
      m_Curve:
      - time: 0
        value: 0
        inSlope: 1.94652331
        outSlope: 1.94652331
        tangentMode: 10
      - time: 6.8166666
        value: 13.2688007
        inSlope: -.76355499
        outSlope: -.76355499
        tangentMode: 10
      - time: 12.3999996
        value: -6.12565041
        inSlope: -1.55781233
        outSlope: -1.55781233
        tangentMode: 10
      - time: 20.4333324
        value: -3.24964833
        inSlope: .230503917
        outSlope: .230503917
        tangentMode: 10
      - time: 43.7000008
        value: -.853199303
        inSlope: -2.4642787
        outSlope: -2.4642787
        tangentMode: 10
      - time: 48.8833351
        value: -26.9334393
        inSlope: -4.80820751
        outSlope: -4.80820751
        tangentMode: 10
      - time: 55.5
        value: -57.2699127
        inSlope: .467792034
        outSlope: .467792034
        tangentMode: 10
      - time: 59.9500008
        value: -32.7039375
        inSlope: 5.52044296
        outSlope: 5.52044296
        tangentMode: 10
      m_PreInfinity: 2
      m_PostInfinity: 2
    attribute: localEulerAnglesBaked.x
    path: 
    classID: 4
    script: {fileID: 0}
  - curve:
      serializedVersion: 2
      m_Curve:
      - time: 0
        value: -161.495239
        inSlope: 8.84469509
        outSlope: 8.84469509
        tangentMode: 10
      - time: 6.8166666
        value: -101.203903
        inSlope: 7.351017
        outSlope: 7.351017
        tangentMode: 10
      - time: 12.3999996
        value: -68.5004272
        inSlope: 8.0308733
        outSlope: 8.0308733
        tangentMode: 10
      - time: 20.4333324
        value: 13.4749746
        inSlope: 3.49487448
        outSlope: 3.49487448
        tangentMode: 10
      - time: 43.7000008
        value: -61.3194237
        inSlope: 4.81127644
        outSlope: 4.81127644
        tangentMode: 10
      - time: 48.8833351
        value: 5.22013712
        inSlope: 7.90264893
        outSlope: 7.90264893
        tangentMode: 10
      - time: 55.5
        value: 24.8589649
        inSlope: 2.71230984
        outSlope: 2.71230984
        tangentMode: 10
      - time: 59.9500008
        value: 35.7905426
        inSlope: 2.45653391
        outSlope: 2.45653391
        tangentMode: 10
      m_PreInfinity: 2
      m_PostInfinity: 2
    attribute: localEulerAnglesBaked.y
    path: 
    classID: 4
    script: {fileID: 0}
  - curve:
      serializedVersion: 2
      m_Curve:
      - time: 0
        value: 0
        inSlope: 0
        outSlope: 0
        tangentMode: 10
      - time: 6.8166666
        value: 0
        inSlope: 0
        outSlope: 0
        tangentMode: 10
      - time: 12.3999996
        value: 0
        inSlope: 0
        outSlope: 0
        tangentMode: 10
      - time: 20.4333324
        value: 0
        inSlope: .0673877224
        outSlope: .0673877224
        tangentMode: 10
      - time: 43.7000008
        value: 3.13577557
        inSlope: -.234974295
        outSlope: -.234974295
        tangentMode: 10
      - time: 48.8833351
        value: .00128869573
        inSlope: -.0771760046
        outSlope: -.0771760046
        tangentMode: 10
      - time: 55.5
        value: 2.98124957
        inSlope: -.109785795
        outSlope: -.109785795
        tangentMode: 10
      - time: 59.9500008
        value: 0
        inSlope: -.669943631
        outSlope: -.669943631
        tangentMode: 10
      m_PreInfinity: 2
      m_PostInfinity: 2
    attribute: localEulerAnglesBaked.z
    path: 
    classID: 4
    script: {fileID: 0}
  m_Events: []
