%YAML 1.1
%TAG !u! tag:unity3d.com,2011:
--- !u!21 &2100000
Material:
  serializedVersion: 3
  m_ObjectHideFlags: 0
  m_PrefabParentObject: {fileID: 0}
  m_PrefabInternal: {fileID: 0}
  m_Name: Big_Beech_branch -Material__Big_Bleech_Brench_Dif
  m_Shader: {fileID: 10601, guid: 0000000000000000f000000000000000, type: 0}
  m_ShaderKeywords: []
  m_CustomRenderQueue: -1
  m_SavedProperties:
    serializedVersion: 2
    m_TexEnvs:
      data:
        first:
          name: _MainTex
        second:
          m_Texture: {fileID: 2800000, guid: ebc070e9133e1c44ca411e85ccf2397a, type: 3}
          m_Scale: {x: 1, y: 1}
          m_Offset: {x: 0, y: 0}
      data:
        first:
          name: _BumpMap
        second:
          m_Texture: {fileID: 2800000, guid: dfb95ec2e707e5047a5b1d949f5ee101, type: 3}
          m_Scale: {x: 1, y: 1}
          m_Offset: {x: 0, y: 0}
      data:
        first:
          name: _TranslucencyMap
        second:
          m_Texture: {fileID: 2800000, guid: c87f2db6bab1b5545b02758dc9b8d2d2, type: 3}
          m_Scale: {x: 1, y: 1}
          m_Offset: {x: 0, y: 0}
      data:
        first:
          name: _GlossMap
        second:
          m_Texture: {fileID: 2800000, guid: 7bdc3f282c8cd334d936757ba2b794ed, type: 3}
          m_Scale: {x: 1, y: 1}
          m_Offset: {x: 0, y: 0}
      data:
        first:
          name: _ShadowOffset
        second:
          m_Texture: {fileID: 2800000, guid: ebc070e9133e1c44ca411e85ccf2397a, type: 3}
          m_Scale: {x: 1, y: 1}
          m_Offset: {x: 0, y: 0}
    m_Floats:
      data:
        first:
          name: _Cutoff
        second: .300000012
      data:
        first:
          name: _Shininess
        second: .0446574427
      data:
        first:
          name: _SquashAmount
        second: 1
    m_Colors:
      data:
        first:
          name: _Color
        second: {r: .800000012, g: .800000012, b: .800000012, a: 1}
      data:
        first:
          name: _Scale
        second: {r: 1, g: 1, b: 1, a: 1}
