%YAML 1.1
%TAG !u! tag:unity3d.com,2011:
--- !u!21 &2100000
Material:
  serializedVersion: 3
  m_ObjectHideFlags: 0
  m_PrefabParentObject: {fileID: 0}
  m_PrefabInternal: {fileID: 0}
  m_Name: MoosRock_Wall
  m_Shader: {fileID: 4, guid: 0000000000000000f000000000000000, type: 0}
  m_ShaderKeywords: []
  m_CustomRenderQueue: -1
  m_SavedProperties:
    serializedVersion: 2
    m_TexEnvs:
      data:
        first:
          name: _MainTex
        second:
          m_Texture: {fileID: 2800000, guid: d62e84010a4b3d4469e1731126cf1899, type: 3}
          m_Scale: {x: 1, y: 1}
          m_Offset: {x: 0, y: 0}
      data:
        first:
          name: _BumpMap
        second:
          m_Texture: {fileID: 2800000, guid: a799cb9468b276047a995c7c2c2df572, type: 3}
          m_Scale: {x: 1, y: 1}
          m_Offset: {x: 0, y: 0}
      data:
        first:
          name: _Dif
        second:
          m_Texture: {fileID: 2800000, guid: 01e66b2c8d99fac4487859dc511fbe1b, type: 3}
          m_Scale: {x: 1, y: 1}
          m_Offset: {x: 0, y: 0}
      data:
        first:
          name: _Nor
        second:
          m_Texture: {fileID: 2800000, guid: a799cb9468b276047a995c7c2c2df572, type: 3}
          m_Scale: {x: 1, y: 1}
          m_Offset: {x: 0, y: 0}
      data:
        first:
          name: _Spec
        second:
          m_Texture: {fileID: 2800000, guid: c9601061a149b6f4eb6f889ae31c820a, type: 3}
          m_Scale: {x: 1, y: 1}
          m_Offset: {x: 0, y: 0}
    m_Floats:
      data:
        first:
          name: _Shininess
        second: .573220015
      data:
        first:
          name: _Gloss
        second: .0149253728
    m_Colors:
      data:
        first:
          name: _Color
        second: {r: .448368758, g: .485074639, b: .394575655, a: 1}
      data:
        first:
          name: _SpecColor
        second: {r: .305970132, g: .305970132, b: .305970132, a: 1}
      data:
        first:
          name: _Diff_Color
        second: {r: .320895493, g: .286732733, b: .24905321, a: 1}
--- !u!1002 &2100001
EditorExtensionImpl:
  serializedVersion: 6
