%YAML 1.1
%TAG !u! tag:unity3d.com,2011:
--- !u!21 &2100000
Material:
  serializedVersion: 3
  m_ObjectHideFlags: 0
  m_PrefabParentObject: {fileID: 0}
  m_PrefabInternal: {fileID: 0}
  m_Name: Rock_Wall
  m_Shader: {fileID: 4, guid: 0000000000000000f000000000000000, type: 0}
  m_ShaderKeywords: []
  m_CustomRenderQueue: -1
  m_SavedProperties:
    serializedVersion: 2
    m_TexEnvs:
      data:
        first:
          name: _MainTex
        second:
          m_Texture: {fileID: 2800000, guid: 2c3f78e6fa8b2aa4880bba7b69a39e40, type: 3}
          m_Scale: {x: 1, y: 1}
          m_Offset: {x: 0, y: 0}
      data:
        first:
          name: _BumpMap
        second:
          m_Texture: {fileID: 2800000, guid: a799cb9468b276047a995c7c2c2df572, type: 3}
          m_Scale: {x: 1, y: 1}
          m_Offset: {x: 0, y: 0}
      data:
        first:
          name: _Dif
        second:
          m_Texture: {fileID: 2800000, guid: e1481c077603696459e90cea0d9920b3, type: 3}
          m_Scale: {x: 1, y: 1}
          m_Offset: {x: 0, y: 0}
      data:
        first:
          name: _Nor
        second:
          m_Texture: {fileID: 2800000, guid: a799cb9468b276047a995c7c2c2df572, type: 3}
          m_Scale: {x: 1, y: 1}
          m_Offset: {x: 0, y: 0}
      data:
        first:
          name: _Spec
        second:
          m_Texture: {fileID: 2800000, guid: efe00d45a7749d64eb7ed985bcea8d24, type: 3}
          m_Scale: {x: 1, y: 1}
          m_Offset: {x: 0, y: 0}
    m_Floats:
      data:
        first:
          name: _Shininess
        second: .0299999993
      data:
        first:
          name: _Gloss
        second: .0149253728
    m_Colors:
      data:
        first:
          name: _Color
        second: {r: .537313461, g: .510618806, b: .469146818, a: 1}
      data:
        first:
          name: _SpecColor
        second: {r: .25373137, g: .25373137, b: .25373137, a: 1}
      data:
        first:
          name: _Diff_Color
        second: {r: .320895493, g: .286732733, b: .24905321, a: 1}
--- !u!1002 &2100001
EditorExtensionImpl:
  serializedVersion: 6
