%YAML 1.1
%TAG !u! tag:unity3d.com,2011:
--- !u!21 &2100000
Material:
  serializedVersion: 3
  m_ObjectHideFlags: 0
  m_PrefabParentObject: {fileID: 0}
  m_PrefabInternal: {fileID: 0}
  m_Name: Conifer_Leaves
  m_Shader: {fileID: 10606, guid: 0000000000000000f000000000000000, type: 0}
  m_ShaderKeywords: []
  m_CustomRenderQueue: -1
  m_SavedProperties:
    serializedVersion: 2
    m_TexEnvs:
      data:
        first:
          name: _MainTex
        second:
          m_Texture: {fileID: 2800000, guid: de69015542dc3344ca46e71295148cd4, type: 3}
          m_Scale: {x: 1, y: 1}
          m_Offset: {x: 0, y: 0}
    m_Floats:
      data:
        first:
          name: _Cutoff
        second: .74776119
      data:
        first:
          name: _SquashAmount
        second: 1
      data:
        first:
          name: _TranslucencyViewDependency
        second: .102985062
      data:
        first:
          name: _ShadowStrength
        second: 1
    m_Colors:
      data:
        first:
          name: _Color
        second: {r: .977611959, g: .974244773, b: .736856759, a: 1}
      data:
        first:
          name: _Scale
        second: {r: 1, g: 1, b: 1, a: 1}
      data:
        first:
          name: _TranslucencyColor
        second: {r: .730000019, g: .850000024, b: .409999996, a: 1}
--- !u!1002 &2100001
EditorExtensionImpl:
  serializedVersion: 6
