%YAML 1.1
%TAG !u! tag:unity3d.com,2011:
--- !u!21 &2100000
Material:
  serializedVersion: 3
  m_ObjectHideFlags: 0
  m_PrefabParentObject: {fileID: 0}
  m_PrefabInternal: {fileID: 0}
  m_Name: Wood_03
  m_Shader: {fileID: 4, guid: 0000000000000000f000000000000000, type: 0}
  m_ShaderKeywords: []
  m_CustomRenderQueue: -1
  m_SavedProperties:
    serializedVersion: 2
    m_TexEnvs:
      data:
        first:
          name: _MainTex
        second:
          m_Texture: {fileID: 2800000, guid: 3b00385a6810daf4ab06b41862a8821e, type: 3}
          m_Scale: {x: 1, y: 1}
          m_Offset: {x: 0, y: 0}
      data:
        first:
          name: _BumpMap
        second:
          m_Texture: {fileID: 2800000, guid: b56853cf57a89154dbbeaec7ffb1e484, type: 3}
          m_Scale: {x: 1, y: 1}
          m_Offset: {x: 0, y: 0}
      data:
        first:
          name: _Dif
        second:
          m_Texture: {fileID: 2800000, guid: 3b00385a6810daf4ab06b41862a8821e, type: 3}
          m_Scale: {x: 1, y: 1}
          m_Offset: {x: 0, y: 0}
      data:
        first:
          name: _Nor
        second:
          m_Texture: {fileID: 2800000, guid: b56853cf57a89154dbbeaec7ffb1e484, type: 3}
          m_Scale: {x: 1, y: 1}
          m_Offset: {x: 0, y: 0}
      data:
        first:
          name: _Spec
        second:
          m_Texture: {fileID: 2800000, guid: bc0c3f2cccb5217499cb517399bcc184, type: 3}
          m_Scale: {x: 1, y: 1}
          m_Offset: {x: 0, y: 0}
    m_Floats:
      data:
        first:
          name: _Shininess
        second: .176130027
      data:
        first:
          name: _Gloss
        second: .0597014911
    m_Colors:
      data:
        first:
          name: _Color
        second: {r: .910447776, g: .910447776, b: .910447776, a: 1}
      data:
        first:
          name: _SpecColor
        second: {r: .514925361, g: .514925361, b: .514925361, a: 1}
      data:
        first:
          name: _Diff_Color
        second: {r: .835820913, g: .835820913, b: .835820913, a: 1}
--- !u!1002 &2100001
EditorExtensionImpl:
  serializedVersion: 6
