%YAML 1.1
%TAG !u! tag:unity3d.com,2011:
--- !u!21 &2100000
Material:
  serializedVersion: 3
  m_ObjectHideFlags: 0
  m_PrefabParentObject: {fileID: 0}
  m_PrefabInternal: {fileID: 0}
  m_Name: Fog_01
  m_Shader: {fileID: 203, guid: 0000000000000000f000000000000000, type: 0}
  m_ShaderKeywords: []
  m_CustomRenderQueue: -1
  m_SavedProperties:
    serializedVersion: 2
    m_TexEnvs:
      data:
        first:
          name: _MainTex
        second:
          m_Texture: {fileID: 2800000, guid: 04f25e76f39fa2d4cbc7274e2ecbb7e9, type: 3}
          m_Scale: {x: 1, y: 1}
          m_Offset: {x: 0, y: 0}
      data:
        first:
          name: _NoiseTex
        second:
          m_Texture: {fileID: 2800000, guid: a0c67a71460b74240bfa86f2b1e96021, type: 3}
          m_Scale: {x: 1, y: 1}
          m_Offset: {x: 0, y: 0}
      data:
        first:
          name: _ShimmerDistort
        second:
          m_Texture: {fileID: 2800000, guid: 7c45fbd451ec7984091e77bce5a7a1eb, type: 3}
          m_Scale: {x: 1, y: 1}
          m_Offset: {x: 0, y: 0}
    m_Floats:
      data:
        first:
          name: _Exponent
        second: .183582112
      data:
        first:
          name: _Intensity
        second: 1.5
      data:
        first:
          name: _InvFade
        second: .0674999729
      data:
        first:
          name: _Y
        second: .447761148
      data:
        first:
          name: _Distort
        second: .0947761238
    m_Colors:
      data:
        first:
          name: _Color
        second: {r: 1, g: 1, b: 1, a: 1}
      data:
        first:
          name: _TintColor
        second: {r: .305969089, g: .313432813, b: .222209826, a: .0705882385}
      data:
        first:
          name: _FogColor
        second: {r: 1, g: .26119405, b: .26119405, a: 1}
--- !u!1002 &2100001
EditorExtensionImpl:
  serializedVersion: 6
