%YAML 1.1
%TAG !u! tag:unity3d.com,2011:
--- !u!21 &2100000
Material:
  serializedVersion: 3
  m_ObjectHideFlags: 0
  m_PrefabParentObject: {fileID: 0}
  m_PrefabInternal: {fileID: 0}
  m_Name: wood_col
  m_Shader: {fileID: 10511, guid: 0000000000000000f000000000000000, type: 0}
  m_ShaderKeywords: []
  m_CustomRenderQueue: -1
  m_SavedProperties:
    serializedVersion: 2
    m_TexEnvs:
      data:
        first:
          name: _MainTex
        second:
          m_Texture: {fileID: 2800000, guid: 59e5fd50bdd92fb48ac1a230aeb4612f, type: 3}
          m_Scale: {x: 1, y: 1}
          m_Offset: {x: 0, y: 0}
    m_Floats:
      data:
        first:
          name: _Cutoff
        second: .5
      data:
        first:
          name: _InvFade
        second: 1
      data:
        first:
          name: _SquashAmount
        second: 1
      data:
        first:
          name: _BaseLight
        second: .976865649
      data:
        first:
          name: _AO
        second: 3.74328375
      data:
        first:
          name: _Occlusion
        second: 5.70895529
    m_Colors:
      data:
        first:
          name: _Color
        second: {r: .701492548, g: .701492548, b: .701492548, a: 1}
      data:
        first:
          name: _TintColor
        second: {r: .5, g: .5, b: .5, a: .5}
      data:
        first:
          name: _Scale
        second: {r: 1, g: 1, b: 1, a: 1}
--- !u!1002 &2100001
EditorExtensionImpl:
  serializedVersion: 6
