%YAML 1.1
%TAG !u! tag:unity3d.com,2011:
--- !u!21 &2100000
Material:
  serializedVersion: 3
  m_ObjectHideFlags: 0
  m_PrefabParentObject: {fileID: 0}
  m_PrefabInternal: {fileID: 0}
  m_Name: Ivy
  m_Shader: {fileID: 51, guid: 0000000000000000f000000000000000, type: 0}
  m_ShaderKeywords: []
  m_CustomRenderQueue: -1
  m_SavedProperties:
    serializedVersion: 2
    m_TexEnvs:
      data:
        first:
          name: _MainTex
        second:
          m_Texture: {fileID: 2800000, guid: 68c0d56ffc7802b44b4e541e02ad7615, type: 3}
          m_Scale: {x: 1, y: 1}
          m_Offset: {x: 0, y: 0}
      data:
        first:
          name: _BumpMap
        second:
          m_Texture: {fileID: 2800000, guid: 070f68f6e62e6f04a9841813d0f9b800, type: 3}
          m_Scale: {x: 1, y: 1}
          m_Offset: {x: 0, y: 0}
      data:
        first:
          name: _TranslucencyMap
        second:
          m_Texture: {fileID: 0}
          m_Scale: {x: 1, y: 1}
          m_Offset: {x: 0, y: 0}
      data:
        first:
          name: _GlossMap
        second:
          m_Texture: {fileID: 2800000, guid: f124fc27692f2b943bc9de4aa572ba0e, type: 3}
          m_Scale: {x: 1, y: 1}
          m_Offset: {x: 0, y: 0}
      data:
        first:
          name: _Dif
        second:
          m_Texture: {fileID: 2800000, guid: 68c0d56ffc7802b44b4e541e02ad7615, type: 3}
          m_Scale: {x: 1, y: 1}
          m_Offset: {x: 0, y: 0}
      data:
        first:
          name: _Nor
        second:
          m_Texture: {fileID: 2800000, guid: 070f68f6e62e6f04a9841813d0f9b800, type: 3}
          m_Scale: {x: 1, y: 1}
          m_Offset: {x: 0, y: 0}
      data:
        first:
          name: _Spec
        second:
          m_Texture: {fileID: 2800000, guid: f124fc27692f2b943bc9de4aa572ba0e, type: 3}
          m_Scale: {x: 1, y: 1}
          m_Offset: {x: 0, y: 0}
      data:
        first:
          name: _ShadowOffset
        second:
          m_Texture: {fileID: 0}
          m_Scale: {x: 1, y: 1}
          m_Offset: {x: 0, y: 0}
      data:
        first:
          name: _dif
        second:
          m_Texture: {fileID: 0}
          m_Scale: {x: 1, y: 1}
          m_Offset: {x: 0, y: 0}
    m_Floats:
      data:
        first:
          name: _Cutoff
        second: .560447872
      data:
        first:
          name: _Shininess
        second: 1
      data:
        first:
          name: _SquashAmount
        second: 1
      data:
        first:
          name: _BaseLight
        second: .731343269
      data:
        first:
          name: _AO
        second: 0
      data:
        first:
          name: _Gloss
        second: .0895522386
      data:
        first:
          name: _Cutout
        second: .507536173
      data:
        first:
          name: _Occlusion
        second: 0
      data:
        first:
          name: _CutOut
        second: .157635495
      data:
        first:
          name: _light
        second: 0
    m_Colors:
      data:
        first:
          name: _Color
        second: {r: .932835817, g: .894280016, b: .807529509, a: 1}
      data:
        first:
          name: _SpecColor
        second: {r: .0597015023, g: .0574738346, b: .0574738346, a: 0}
      data:
        first:
          name: _Scale
        second: {r: 1, g: 1, b: 1, a: 1}
      data:
        first:
          name: _Diff_Color
        second: {r: .902985096, g: .763969958, b: .505402088, a: 1}
--- !u!1002 &2100001
EditorExtensionImpl:
  serializedVersion: 6
