%YAML 1.1
%TAG !u! tag:unity3d.com,2011:
--- !u!21 &2100000
Material:
  serializedVersion: 3
  m_ObjectHideFlags: 0
  m_PrefabParentObject: {fileID: 0}
  m_PrefabInternal: {fileID: 0}
  m_Name: treestump_01_nor
  m_Shader: {fileID: 4, guid: 0000000000000000f000000000000000, type: 0}
  m_ShaderKeywords: []
  m_CustomRenderQueue: -1
  m_SavedProperties:
    serializedVersion: 2
    m_TexEnvs:
      data:
        first:
          name: _MainTex
        second:
          m_Texture: {fileID: 2800000, guid: 12cfd3f71ac54f44aad3dcacc4d23614, type: 3}
          m_Scale: {x: 1, y: 1}
          m_Offset: {x: 0, y: 0}
      data:
        first:
          name: _BumpMap
        second:
          m_Texture: {fileID: 2800000, guid: 3c9dc606a5014e042b3d35134a00eeb2, type: 3}
          m_Scale: {x: 1, y: 1}
          m_Offset: {x: 0, y: 0}
      data:
        first:
          name: _Dif
        second:
          m_Texture: {fileID: 2800000, guid: 289ecfce41bd1894e920732eb3d74066, type: 3}
          m_Scale: {x: 1, y: 1}
          m_Offset: {x: 0, y: 0}
      data:
        first:
          name: _Nor
        second:
          m_Texture: {fileID: 2800000, guid: 3c9dc606a5014e042b3d35134a00eeb2, type: 3}
          m_Scale: {x: 1, y: 1}
          m_Offset: {x: 0, y: 0}
      data:
        first:
          name: _Spec
        second:
          m_Texture: {fileID: 2800000, guid: df744f9c527a7ae45b285ebd9b75aa5c, type: 3}
          m_Scale: {x: 1, y: 1}
          m_Offset: {x: 0, y: 0}
    m_Floats:
      data:
        first:
          name: _Shininess
        second: .185708508
      data:
        first:
          name: _Gloss
        second: .01492537
    m_Colors:
      data:
        first:
          name: _Color
        second: {r: .640451312, g: .641791046, b: .59389621, a: 1}
      data:
        first:
          name: _SpecColor
        second: {r: .522388101, g: .522388101, b: .522388101, a: 1}
      data:
        first:
          name: _Diff_Color
        second: {r: .590534329, g: .597014904, b: .539095521, a: 1}
--- !u!1002 &2100001
EditorExtensionImpl:
  serializedVersion: 6
